Davina:	1956-05-20
Lewis:	1956-05-19
Noretha:	1956-05-19
Linzy:	1956-05-13
Jaquay:	1956-05-06
Jorden:	1956-05-04
Sumi:	1956-05-03
Michaelle:	1956-05-02
Tavarus:	1956-05-01
Susette:	1956-04-27
Caysie:	1956-04-26
Yalisa:	1956-04-25
Edward:	1956-04-12
Blanchie:	1956-04-11
Kathryn:	1956-04-11
Garcelle:	1956-04-04
Jaimie:	1956-03-28
Hipolito:	1956-03-28
Lavinia:	1956-03-27
Yzabella:	1956-03-08
Gao:	1956-03-08
Marrin:	1956-02-26
Elecia:	1956-02-24
Genevie:	1956-02-23
Algie:	1956-02-19
Macen:	1956-02-17
Bertrand:	1956-02-15
Latishia:	1956-02-14
Lavora:	1956-02-12
Laytin:	1956-02-03
Orlan:	1956-01-28
Elwanda:	1956-01-27
Eldad:	1956-01-25
Kamri:	1956-01-19
Malakii:	1956-01-19
Renessa:	1956-01-18
Salih:	1956-01-17
Jakarie:	1956-01-14
Nechy:	1956-01-12
Haruki:	1956-01-11
Madline:	1956-01-09
Anina:	1956-01-08
Toma:	1956-01-07
Dabney:	1956-01-05
Brian:	1955-12-22
Kendale:	1955-12-17
Jedadiah:	1955-12-11
Obrian:	1955-12-06
Timothy:	1955-11-27
Dianalaura:	1955-11-25
Jada:	1955-11-25
Rocio:	1955-11-19
Delsy:	1955-11-18
Sharayah:	1955-11-16
Tifanee:	1955-11-16
Nevina:	1955-11-15
Sherie:	1955-11-10
Avril:	1955-11-06
Dasean:	1955-11-02
Verneil:	1955-10-23
Luda:	1955-10-22
Keyasia:	1955-10-19
Tobi:	1955-10-17
Alvis:	1955-10-17
Vivek:	1955-10-16
Reynaldo:	1955-10-12
Edd:	1955-10-11
Delia:	1955-10-09
Isidro:	1955-10-08
Kaliegh:	1955-10-07
Stevie:	1955-09-28
Kyndel:	1955-09-28
Mickaela:	1955-09-27
Hulda:	1955-09-22
Evianna:	1955-09-22
Diamond:	1955-09-22
Antario:	1955-09-11
Bruna:	1955-09-10
Jenette:	1955-09-08
Gil:	1955-09-08
Zeinah:	1955-09-07
Ramar:	1955-09-04
Ursula:	1955-09-02
Rexanne:	1955-08-23
Cashel:	1955-08-20
Jennetta:	1955-08-18
Jonni:	1955-08-10
Elysia:	1955-08-08
Asya:	1955-08-08
Kimyada:	1955-08-01
Kamber:	1955-07-25
Cera:	1955-07-24
Jaydden:	1955-07-24
Yelitza:	1955-07-19
Diajah:	1955-07-15
Etter:	1955-07-14
Tin:	1955-07-12
Sanquenetta:	1955-07-05
Autumn:	1955-07-04
Sandy:	1955-06-27
Keriann:	1955-06-24
Filip:	1955-06-24
Ileen:	1955-06-21
Veronica:	1955-06-19
Pritam:	1955-06-09
Arshdeep:	1955-06-06
Kelley:	1955-06-04
Avoree:	1955-05-22
Fatmata:	1955-05-21
Wilton:	1955-05-20
Caidyn:	1955-05-14
Sena:	1955-05-13
Taz:	1955-05-09
Takumi:	1955-05-08
Yuka:	1955-05-07
Kimbely:	1955-05-06
Everest:	1955-05-03
Lavergne:	1955-04-15
Ki:	1955-04-15
Desmond:	1955-04-11
Gisel:	1955-04-07
Sunnie:	1955-04-06
Dulcemaria:	1955-04-06
Marilynne:	1955-03-27
Zareen:	1955-03-26
Monzerrath:	1955-03-25
Lorrin:	1955-03-20
Mart:	1955-03-16
Jamey:	1955-03-15
Wonder:	1955-03-15
Jailani:	1955-03-11
Murry:	1955-03-10
Shanah:	1955-03-08
Makalia:	1955-02-26
Viktor:	1955-02-12
Nadeen:	1955-02-07
Mohannad:	1955-02-04
Hermine:	1955-02-02
Ruthene:	1955-01-26
Mendy:	1955-01-25
Alysa:	1955-01-24
Diamond:	1955-01-24
Lucy:	1955-01-23
Rockney:	1955-01-20
Makiaya:	1955-01-16
Delmon:	1955-01-15
Davied:	1955-01-14
Quinnton:	1955-01-14
Oddis:	1955-01-08
Tristen:	1955-01-08
Delainee:	1955-01-05
Bedford:	1955-01-03
Zonia:	1955-01-03
Lajada:	1954-12-27
Brianie:	1954-12-26
Alicya:	1954-12-25
Thomas:	1954-12-24
Nerissa:	1954-12-18
Rae:	1954-12-11
Carsen:	1954-12-11
Marla:	1954-12-10
Ikshan:	1954-12-09
Canyon:	1954-12-09
Jamesia:	1954-12-05
Beauford:	1954-12-04
Donyell:	1954-12-04
Lawrance:	1954-12-02
Jacalynn:	1954-11-26
Merritt:	1954-11-26
Alexis:	1954-11-15
Kalise:	1954-11-12
Shellie:	1954-11-10
Zion:	1954-11-08
Piper:	1954-11-06
Rolla:	1954-11-02
Loraine:	1954-10-26
Squire:	1954-10-23
Dillon:	1954-10-22
Lakea:	1954-10-15
Breeann:	1954-10-10
Carol:	1954-10-08
Breonna:	1954-10-05
Grandon:	1954-10-03
Janelle:	1954-09-24
Edelynn:	1954-09-17
Stacia:	1954-09-15
Jon:	1954-09-14
Cletus:	1954-09-10
Irisa:	1954-09-10
Kasiyah:	1954-09-06
Harvey:	1954-09-05
Sabas:	1954-09-04
Mychael:	1954-09-04
Brisayda:	1954-09-03
Elliet:	1954-08-23
Aleigh:	1954-08-06
Brinna:	1954-08-05
Pinchus:	1954-08-04
Alan:	1954-07-27
Shakendra:	1954-07-22
Neil:	1954-07-18
Toussaint:	1954-07-09
Monae:	1954-07-08
Neely:	1954-07-04
Tahirih:	1954-07-01
Antwoine:	1954-06-28
Kimberli:	1954-06-21
Damia:	1954-06-19
Romana:	1954-06-13
Anice:	1954-06-11
Mcadoo:	1954-06-05
Sterlyn:	1954-05-27
Editha:	1954-05-23
Gordie:	1954-05-10
Ronney:	1954-05-09
Carron:	1954-05-04
Ronna:	1954-05-03
Atif:	1954-04-28
Manny:	1954-04-27
Josiahs:	1954-04-24
Jelena:	1954-04-11
Delbra:	1954-04-08
Quinnel:	1954-04-07
Enriqueta:	1954-03-26
Bao:	1954-03-24
Jermarcus:	1954-03-22
Clayborn:	1954-03-21
Benjaman:	1954-03-19
Eloyce:	1954-03-09
Ailish:	1954-03-07
Tiffaney:	1954-02-27
Cecilia:	1954-02-25
Raffael:	1954-02-23
Nakai:	1954-02-22
Irfan:	1954-02-20
Abrina:	1954-02-18
Donna:	1954-02-17
Katalaya:	1954-02-16
Wiliam:	1954-02-12
Epiphany:	1954-02-08
Marie:	1954-02-07
Garfield:	1954-02-05
Winona:	1954-02-05
Shatana:	1954-02-01
Sarrah:	1954-01-22
Kelsea:	1954-01-20
Clarabelle:	1954-01-14
Milbert:	1954-01-14
Aston:	1954-01-03
Candelario:	1953-12-16
Matix:	1953-12-16
Dakoda:	1953-12-16
Arlanda:	1953-12-12
Nairi:	1953-12-08
Laurent:	1953-12-07
Willo:	1953-12-03
Chauncey:	1953-11-26
Hesham:	1953-11-24
Barak:	1953-11-24
Kishia:	1953-11-21
Tamai:	1953-11-12
Seldon:	1953-11-09
Alexiana:	1953-11-03
Javeyon:	1953-11-02
Vicki:	1953-11-02
Abbie:	1953-10-26
Samual:	1953-10-16
Sanders:	1953-10-12
Nithya:	1953-10-07
Gustavo:	1953-10-04
Juliet:	1953-10-04
Deyona:	1953-10-01
Kariann:	1953-09-25
Antigone:	1953-09-24
Brett:	1953-09-19
Chloris:	1953-09-11
Lou:	1953-09-10
Jerrika:	1953-09-09
Audrea:	1953-09-06
Deetta:	1953-09-05
Smyrna:	1953-09-03
Rivers:	1953-08-23
Nadean:	1953-08-22
Rachit:	1953-08-22
Somaly:	1953-08-19
Ninfa:	1953-08-14
Yareli:	1953-08-10
Lonny:	1953-08-09
Marie:	1953-08-05
Steen:	1953-08-05
Danyetta:	1953-08-04
Lorina:	1953-07-21
Davion:	1953-07-18
Ulyses:	1953-07-13
Marice:	1953-07-13
Michaila:	1953-07-12
Murrel:	1953-07-11
Arieon:	1953-07-11
Regis:	1953-07-03
Adoniram:	1953-07-01
Pennye:	1953-06-28
Idolina:	1953-06-27
Wakil:	1953-06-26
Kirsti:	1953-06-26
Sheldon:	1953-06-25
Kontina:	1953-06-23
Keenan:	1953-06-23
Janita:	1953-06-22
Knox:	1953-06-22
Annalie:	1953-06-21
Gabrielle:	1953-06-21
Enjoli:	1953-06-19
Mckaila:	1953-06-09
Pelham:	1953-05-26
Cipriano:	1953-05-26
Andra:	1953-05-23
Dollie:	1953-05-05
Laurent:	1953-04-27
Cailah:	1953-04-25
Merie:	1953-04-25
Shimon:	1953-04-25
Venus:	1953-04-21
Tige:	1953-04-19
Gil:	1953-04-16
Maureen:	1953-04-12
Dedric:	1953-04-09
Abdoul:	1953-04-05
Veralyn:	1953-04-05
Harrietta:	1953-03-28
Shivam:	1953-03-20
Eulalie:	1953-03-18
Murline:	1953-03-16
Kaileigh:	1953-03-15
Mala:	1953-03-13
Marialuisa:	1953-03-07
Willie:	1953-03-04
Nixon:	1953-03-01
Kloey:	1953-02-28
Lachlan:	1953-02-27
Dale:	1953-02-27
Isaih:	1953-02-21
Jaylynn:	1953-02-20
Kenai:	1953-02-18
Koltan:	1953-02-11
Aubreana:	1953-02-09
Tocarra:	1953-01-25
Undra:	1953-01-25
Carmin:	1953-01-14
Alexssa:	1953-01-13
Maiana:	1953-01-05
Gladden:	1953-01-05
Glorianna:	1953-01-04
Kendric:	1953-01-04
Kohei:	1953-01-01
Everlyn:	1952-12-21
Loris:	1952-12-15
Kalyse:	1952-12-10
Micha:	1952-12-01
Shailynn:	1952-12-01
Shantai:	1952-11-19
Elenor:	1952-11-13
Florette:	1952-11-12
Silver:	1952-11-11
Dalton:	1952-11-10
Abhi:	1952-11-05
Shawnee:	1952-11-04
Love:	1952-10-27
Desirea:	1952-10-25
Dabney:	1952-10-25
Yoeli:	1952-10-24
Linsay:	1952-10-24
Pepper:	1952-10-22
Jed:	1952-10-19
Elany:	1952-10-10
Glade:	1952-10-09
Ameer:	1952-10-09
Didier:	1952-10-06
Grace:	1952-10-02
Preslie:	1952-09-24
Mee:	1952-09-23
Morgan:	1952-09-21
Alixandra:	1952-09-08
Doralee:	1952-08-21
Deantre:	1952-08-20
Edmae:	1952-08-15
Xaria:	1952-08-11
Simcha:	1952-08-07
Fisher:	1952-07-25
Elsbeth:	1952-07-24
Keyonna:	1952-07-22
Ximenna:	1952-07-21
Naieem:	1952-07-20
Ivey:	1952-07-17
Lacy:	1952-07-14
Lavert:	1952-07-12
Kerion:	1952-06-28
Iola:	1952-06-25
Ernst:	1952-06-23
Rob:	1952-06-22
Tashvi:	1952-06-18
Ikram:	1952-06-18
Michaelyn:	1952-06-12
Lorilyn:	1952-06-11
Jossie:	1952-06-07
Clarke:	1952-06-04
Tya:	1952-06-04
Catalina:	1952-06-02
Iysha:	1952-05-11
Zyriah:	1952-05-05
Susanne:	1952-05-04
Diksha:	1952-05-03
Russella:	1952-05-02
Klair:	1952-04-26
Carmen:	1952-04-25
Jessiah:	1952-04-20
Tannen:	1952-04-18
Demitrius:	1952-04-14
Lael:	1952-04-11
Mylo:	1952-04-05
Martisa:	1952-03-28
Samayah:	1952-03-27
Eldred:	1952-03-23
Travarious:	1952-03-22
Dennis:	1952-03-22
Drayven:	1952-03-18
Queenie:	1952-03-12
Robin:	1952-03-08
Rowe:	1952-03-07
Cledith:	1952-03-06
Mellanie:	1952-02-28
Chaylin:	1952-02-27
Dulcie:	1952-02-26
Vinessa:	1952-02-21
Marisa:	1952-02-19
Devontay:	1952-02-15
Karmynn:	1952-02-14
Baxter:	1952-02-12
Itsamari:	1952-02-11
Roberto:	1952-02-09
Najmo:	1952-02-05
Sara:	1952-02-05
Rosslyn:	1952-02-03
Nashley:	1952-01-22
Jenell:	1952-01-19
Aneisa:	1952-01-18
Rosaline:	1952-01-17
Hines:	1952-01-15
Reino:	1951-12-25
Frieda:	1951-12-24
Saveon:	1951-12-23
Narciso:	1951-12-19
Buel:	1951-12-18
Jewelz:	1951-12-17
Johnelle:	1951-12-17
Josmar:	1951-12-13
Johne:	1951-12-08
Daphne:	1951-12-06
Josiephine:	1951-11-24
Sami:	1951-11-24
Sammie:	1951-11-19
Devi:	1951-11-12
Evan:	1951-11-11
Jarell:	1951-10-26
Velva:	1951-10-19
Nil:	1951-10-17
Arushi:	1951-10-09
Juleanna:	1951-10-05
Olajumoke:	1951-10-01
Nicolis:	1951-09-28
Jayna:	1951-09-25
Peterson:	1951-09-15
Dennice:	1951-09-09
Darcella:	1951-09-06
Syriah:	1951-08-22
Regis:	1951-08-22
Kamyah:	1951-08-21
Kiley:	1951-08-17
Laury:	1951-08-16
Omunique:	1951-07-25
Marquon:	1951-07-24
Remingtyn:	1951-07-21
Alaria:	1951-07-19
Kirbie:	1951-07-09
Shara:	1951-07-08
Garner:	1951-06-27
Luismiguel:	1951-06-25
Inga:	1951-06-25
Josemanuel:	1951-06-20
Nephtalie:	1951-06-13
Isaih:	1951-06-12
Mathilde:	1951-06-08
Antonetta:	1951-06-06
Tevis:	1951-05-20
Katharine:	1951-05-18
Kalvin:	1951-05-17
Brendalee:	1951-05-17
Bennita:	1951-05-14
Demetri:	1951-05-07
Kyian:	1951-05-02
Blossie:	1951-04-27
Kyrin:	1951-04-21
Alexxis:	1951-04-20
Takira:	1951-04-14
Howie:	1951-04-11
Donnald:	1951-04-10
Calina:	1951-04-08
Jeimy:	1951-04-02
Donya:	1951-03-27
Darrin:	1951-03-27
Maridee:	1951-03-22
Zanayah:	1951-03-22
Michaelle:	1951-03-22
Carlo:	1951-03-21
Sheray:	1951-03-21
Maurica:	1951-03-15
Ajaycia:	1951-02-24
Jerrid:	1951-02-22
Leyla:	1951-02-18
Janith:	1951-02-17
Jerome:	1951-02-13
Lalo:	1951-02-12
Karmin:	1951-02-11
Aliandra:	1951-02-01
Early:	1951-01-25
Deontray:	1951-01-25
Katonya:	1951-01-20
Marita:	1951-01-14
Dimple:	1951-01-13
Odell:	1951-01-10
Hugo:	1951-01-08
Devyn:	1950-12-26
Brianna:	1950-12-22
Rachelle:	1950-12-14
Jashley:	1950-12-14
Spurgeon:	1950-12-07
Electa:	1950-12-06
Demetri:	1950-12-06
Maud:	1950-12-05
Shawn:	1950-12-04
Vernelle:	1950-11-15
Letecia:	1950-11-09
Arek:	1950-11-07
Larraine:	1950-11-05
Ronn:	1950-11-02
Janyth:	1950-11-02
Rosalynn:	1950-10-28
Mildred:	1950-10-24
Neyla:	1950-10-22
Jaegar:	1950-10-22
Nadra:	1950-10-20
Adrian:	1950-10-15
Nissa:	1950-10-15
Mansi:	1950-10-09
Genoveva:	1950-10-09
Rishith:	1950-10-05
Mardi:	1950-09-19
Earlena:	1950-09-12
Russ:	1950-09-11
Vonzella:	1950-09-08
Meeghan:	1950-09-07
Nino:	1950-09-04
Keyera:	1950-09-04
Neenah:	1950-08-21
Elam:	1950-08-16
Jahmere:	1950-08-14
Richardo:	1950-08-13
Ariana:	1950-08-05
Frieda:	1950-08-03
Franklin:	1950-08-01
Sunshine:	1950-07-21
Joany:	1950-07-19
Kaliann:	1950-07-17
Brande:	1950-07-16
Sidonia:	1950-07-16
Florrie:	1950-07-14
Karena:	1950-07-13
Linwood:	1950-07-08
Nirvana:	1950-07-03
Joetta:	1950-07-01
Quinn:	1950-06-26
Cassius:	1950-06-23
Carlisa:	1950-06-20
Ashe:	1950-06-16
Deannea:	1950-06-15
Sabirin:	1950-06-15
Juliet:	1950-06-12
Gareld:	1950-06-09
Fardeen:	1950-06-09
Edward:	1950-06-06
Nikki:	1950-06-03
Margherita:	1950-05-24
Kazoua:	1950-05-20
Torry:	1950-05-20
Reece:	1950-05-14
Maximilien:	1950-05-13
Quaniyah:	1950-05-11
Erlinda:	1950-05-05
Stacy:	1950-05-03
Jayleene:	1950-04-25
Quinterrius:	1950-04-13
Chanan:	1950-04-10
Opal:	1950-04-03
Johannes:	1950-03-28
Eldon:	1950-03-25
Lugenia:	1950-03-23
Kena:	1950-03-22
Serafina:	1950-03-21
Lashaune:	1950-03-10
Ramata:	1950-03-03
Celestina:	1950-02-28
Ali:	1950-02-22
Lavayah:	1950-02-20
Kerianne:	1950-02-20
Evans:	1950-02-17
Kimberly:	1950-02-16
Arlyn:	1950-02-12
Jlyn:	1950-02-11
Violetta:	1950-02-08
Abigail:	1950-02-07
Sheilah:	1950-01-28
Dreama:	1950-01-28
Mick:	1950-01-27
Eeva:	1950-01-24
Viktoriya:	1950-01-22
Napolean:	1950-01-20
Valentine:	1950-01-17
Thalia:	1950-01-17
Juma:	1950-01-11
Raleigh:	1950-01-06
Ivin:	1950-01-05
Kelley:	1950-01-04
Max:	1950-01-04
Lc:	1950-01-02
Jessi:	1949-12-27
Zafira:	1949-12-19
Ashlley:	1949-12-16
Myron:	1949-12-10
Jacarion:	1949-12-07
Marelli:	1949-12-06
Willow:	1949-12-04
Zoltan:	1949-12-02
Maizie:	1949-11-27
Derrion:	1949-11-26
Tyshayla:	1949-11-23
Benn:	1949-11-13
Arion:	1949-11-10
Musa:	1949-11-10
Derry:	1949-11-10
Edger:	1949-11-09
Anjelika:	1949-11-06
Audrey:	1949-10-20
Rodolfo:	1949-10-13
Chun:	1949-10-12
Anthony:	1949-10-03
Caidence:	1949-09-25
Jabin:	1949-09-23
Donat:	1949-09-20
Trinitie:	1949-09-20
Rilyn:	1949-09-19
Jessel:	1949-09-15
Jeania:	1949-09-13
Johnny:	1949-09-10
Eryk:	1949-09-09
Holly:	1949-09-04
Damariz:	1949-09-01
Merton:	1949-08-28
Ansel:	1949-08-27
Joane:	1949-08-27
Clarance:	1949-08-26
Slevin:	1949-08-23
Chrisann:	1949-08-23
Amonti:	1949-08-20
Nobel:	1949-08-17
Matilde:	1949-08-12
Aldona:	1949-08-10
Pernell:	1949-08-08
Doretta:	1949-08-08
Isla:	1949-07-24
Cloud:	1949-07-14
Desiderio:	1949-07-08
Uma:	1949-07-04
Fareed:	1949-07-02
Nikolas:	1949-07-02
Calian:	1949-07-01
Loarine:	1949-06-28
Dazia:	1949-06-21
Chris:	1949-06-17
Taiesha:	1949-06-11
Earla:	1949-06-04
Jaymier:	1949-06-02
Christina:	1949-05-26
Daud:	1949-05-24
Jenella:	1949-05-08
Joelle:	1949-05-02
Megin:	1949-05-01
Kaleea:	1949-04-19
Chancey:	1949-04-13
Hulin:	1949-04-09
Abel:	1949-04-08
Kimmerly:	1949-04-05
Beverlee:	1949-03-26
Anastacia:	1949-03-17
Raeleen:	1949-03-16
Chiquetta:	1949-03-15
Burleigh:	1949-03-13
Christyan:	1949-03-10
Kamryn:	1949-03-10
Anoop:	1949-03-09
Tejuana:	1949-03-08
Letroy:	1949-03-07
Shanessa:	1949-03-04
Mila:	1949-03-01
Aaminah:	1949-03-01
Rosann:	1949-02-28
Jaelle:	1949-02-19
Analisia:	1949-02-16
Erin:	1949-02-15
Jhonatan:	1949-02-09
Emiterio:	1949-01-28
Journii:	1949-01-28
Avishka:	1949-01-27
Treylen:	1949-01-23
Bunyan:	1949-01-23
Lexis:	1949-01-21
Amadeus:	1949-01-14
Devonne:	1949-01-13
Corinthian:	1949-01-11
Hava:	1949-01-04
Annabelle:	1948-12-25
Ricarda:	1948-12-18
Lysette:	1948-12-10
Bruno:	1948-12-02
Fedrick:	1948-11-21
Lynetta:	1948-11-08
Danae:	1948-11-08
Ronja:	1948-11-08
Calysta:	1948-11-03
Maryanna:	1948-10-22
Karma:	1948-10-21
Oley:	1948-10-20
Ruie:	1948-10-20
Angelo:	1948-10-16
Bernardino:	1948-10-11
Aleen:	1948-10-05
Margret:	1948-10-03
Rex:	1948-10-02
Ladan:	1948-09-24
Aamna:	1948-09-21
Arnetta:	1948-09-20
Mikkel:	1948-09-10
Onda:	1948-09-10
Stace:	1948-09-07
Jasnoor:	1948-09-05
Darianne:	1948-08-22
Verdell:	1948-08-10
Jaxxton:	1948-08-09
Keri:	1948-08-05
Emmely:	1948-08-03
Bridget:	1948-07-26
Princesa:	1948-07-21
An:	1948-07-21
Duan:	1948-07-21
Marjory:	1948-07-01
Jasmine:	1948-06-28
Corlis:	1948-06-26
Kyera:	1948-06-13
Michaelyn:	1948-06-13
Dennise:	1948-06-13
Emilyann:	1948-06-05
Shanae:	1948-06-05
Vaibhav:	1948-06-02
Arthurine:	1948-05-23
Kidd:	1948-05-22
Lovenia:	1948-05-18
Lometa:	1948-05-17
Chlora:	1948-05-09
Iyesha:	1948-05-06
Prisca:	1948-04-22
Diallo:	1948-04-22
Payson:	1948-04-20
Janelly:	1948-04-20
Monford:	1948-04-20
Kammi:	1948-04-19
Opha:	1948-04-14
Arlando:	1948-04-07
Bee:	1948-04-06
Geovani:	1948-04-04
Dock:	1948-04-02
Mariha:	1948-03-26
Rumaldo:	1948-03-19
Caryn:	1948-03-18
Jourdyn:	1948-03-16
Nora:	1948-03-15
Sander:	1948-03-14
Olden:	1948-03-11
Shamonica:	1948-03-11
Roosevelt:	1948-03-03
Carlea:	1948-03-02
Rene:	1948-02-28
Lavonia:	1948-02-27
Azzure:	1948-02-17
Quanzell:	1948-02-16
Herschell:	1948-02-15
Harman:	1948-02-08
Mellonie:	1948-02-04
Hanad:	1948-01-28
Lannie:	1948-01-28
Nannetta:	1948-01-26
Ofelia:	1948-01-24
Nita:	1948-01-23
Jenelle:	1948-01-22
Junius:	1948-01-17
Christapher:	1948-01-14
Xzavier:	1948-01-14
Arno:	1948-01-08
Mekea:	1948-01-07
Raybon:	1948-01-04
Reyes:	1948-01-03
Myanah:	1947-12-20
Jordon:	1947-12-10
Berni:	1947-12-09
Marykay:	1947-12-07
Gardell:	1947-12-06
Laretha:	1947-12-06
Malic:	1947-12-06
Jaquise:	1947-12-06
Jemila:	1947-11-23
Pahoua:	1947-11-09
Mervin:	1947-11-08
Myles:	1947-11-04
Freddie:	1947-11-04
Jacobo:	1947-11-01
Makenzie:	1947-10-27
Tenesha:	1947-10-25
Foy:	1947-10-24
Maloni:	1947-10-23
Brinna:	1947-10-17
Mariella:	1947-10-15
Ninette:	1947-10-11
Godfrey:	1947-10-10
Geraldy:	1947-10-08
Breauna:	1947-09-24
Merced:	1947-09-22
Kassia:	1947-09-17
Benjimin:	1947-09-12
Jozalyn:	1947-09-08
Emmaree:	1947-09-08
Bayler:	1947-09-06
Horacio:	1947-09-06
Sheniqua:	1947-08-27
Eugene:	1947-08-23
Lashawna:	1947-08-21
Wilbur:	1947-08-16
Vaughn:	1947-08-09
Oryn:	1947-07-28
Reuel:	1947-07-23
Amiir:	1947-07-17
Sharyl:	1947-07-15
Leonitus:	1947-07-11
Javoris:	1947-07-11
Pepper:	1947-07-06
Delfina:	1947-07-05
Levine:	1947-06-24
Loralei:	1947-06-23
Reiley:	1947-06-23
Joell:	1947-06-21
Machael:	1947-06-20
Niamh:	1947-06-18
Alishan:	1947-06-17
Adalai:	1947-06-15
Shanitra:	1947-06-11
Anthon:	1947-06-01
Estela:	1947-04-25
Jaelen:	1947-04-16
Alvino:	1947-04-15
Joden:	1947-04-15
Minnie:	1947-04-15
Corene:	1947-04-13
Melinda:	1947-04-02
Solveig:	1947-03-28
Wilhelm:	1947-03-27
Chan:	1947-03-27
Desma:	1947-03-19
Kristella:	1947-03-10
Haven:	1947-03-10
Davie:	1947-03-08
Sharneice:	1947-03-07
Madelina:	1947-03-01
Jeneva:	1947-02-28
Ulrich:	1947-02-26
Eual:	1947-02-24
Reese:	1947-02-19
Dessa:	1947-02-18
Letia:	1947-02-17
Elizah:	1947-02-12
Najah:	1947-02-11
Maxene:	1947-02-11
Rishad:	1947-01-28
Alisha:	1947-01-22
Delta:	1947-01-20
Zael:	1947-01-19
Jacqueline:	1947-01-19
Wright:	1947-01-16
Francisca:	1947-01-10
Zakyia:	1947-01-07
Savannah:	1947-01-01
Ellora:	1947-01-01
Reuel:	1946-12-28
Leenah:	1946-12-24
Yovonda:	1946-12-22
Calvin:	1946-12-19
Sam:	1946-12-07
Inika:	1946-12-07
Jonaven:	1946-12-05
Dekota:	1946-11-28
Semarias:	1946-11-27
France:	1946-11-24
Karee:	1946-11-19
Mekenna:	1946-11-18
Mieko:	1946-11-12
Shirl:	1946-11-06
Heena:	1946-11-05
Reny:	1946-11-05
Baltazar:	1946-10-28
Duard:	1946-10-27
Margaret:	1946-10-26
Kiara:	1946-10-23
Artis:	1946-10-20
Stepheny:	1946-10-18
Daysi:	1946-10-09
Cortez:	1946-10-05
Jenisha:	1946-09-28
Corene:	1946-09-25
Dexton:	1946-09-24
Arthuro:	1946-09-22
Jamaria:	1946-09-21
Tiffancy:	1946-09-21
Brenda:	1946-09-19
Jamill:	1946-09-18
Jaquarius:	1946-09-08
Truman:	1946-09-07
Raziya:	1946-08-24
Travian:	1946-08-23
Tarry:	1946-08-19
Shylah:	1946-08-18
Kenja:	1946-08-16
Tamme:	1946-08-12
Corene:	1946-08-11
Lanore:	1946-08-10
Eliezer:	1946-08-05
Kristopher:	1946-07-28
Zoeylynn:	1946-07-28
Adrien:	1946-07-28
Sowmya:	1946-07-24
Shakyra:	1946-07-22
Amanda:	1946-07-20
Jeanett:	1946-07-19
Johnie:	1946-07-16
Aleksey:	1946-07-16
Arianni:	1946-07-14
Aric:	1946-07-06
Jones:	1946-07-04
Deliah:	1946-06-21
Vicky:	1946-06-19
Mitch:	1946-06-16
Tesia:	1946-06-15
Kamaya:	1946-06-05
Vaughn:	1946-05-28
Martell:	1946-05-28
Heidie:	1946-05-27
Dabne:	1946-05-23
Brealyn:	1946-05-22
Shineka:	1946-05-21
Christiane:	1946-05-21
Samaad:	1946-05-20
Anay:	1946-05-18
Fidelia:	1946-05-10
Kandi:	1946-05-08
Jasraj:	1946-05-03
Hannahgrace:	1946-05-03
Cathlin:	1946-05-02
Alaia:	1946-05-01
Simuel:	1946-04-27
Margaretha:	1946-04-22
Blanche:	1946-04-21
Quinzell:	1946-04-20
Latecia:	1946-04-19
Elio:	1946-04-03
Alexea:	1946-03-27
Corwin:	1946-03-17
Hitesh:	1946-03-16
Aashvi:	1946-03-14
Oran:	1946-03-11
Norville:	1946-03-10
Nadya:	1946-03-10
Hatcher:	1946-03-10
Danniela:	1946-03-04
Malacki:	1946-03-02
Kally:	1946-02-27
Sandra:	1946-02-27
Masaru:	1946-02-18
Vasiliki:	1946-02-07
Evelio:	1946-01-25
Braylea:	1946-01-23
Wyonia:	1946-01-21
Lakea:	1946-01-21
Cecil:	1946-01-20
Randy:	1946-01-19
Sonoma:	1946-01-18
Neil:	1946-01-16
Athaleen:	1946-01-10
Denna:	1946-01-04
Jannie:	1945-12-22
Tyronne:	1945-12-22
Benton:	1945-12-21
Teejay:	1945-12-19
Addysyn:	1945-12-17
Wash:	1945-12-12
Tigran:	1945-12-12
Nicki:	1945-12-08
Hilton:	1945-12-07
Cassey:	1945-12-03
Tomasa:	1945-11-22
Barrie:	1945-11-20
Victorio:	1945-11-20
Axeton:	1945-11-20
Ambriel:	1945-11-18
Lera:	1945-11-13
Calob:	1945-11-11
Ada:	1945-11-10
Lila:	1945-11-06
Naveena:	1945-11-04
Fortino:	1945-10-21
Donato:	1945-10-18
Geffrey:	1945-10-17
Lois:	1945-10-15
Dalina:	1945-10-11
Conita:	1945-10-08
Brayden:	1945-10-06
Sherice:	1945-10-03
Alayne:	1945-10-02
Michal:	1945-10-02
Mi:	1945-09-28
Rinette:	1945-09-25
Azlin:	1945-09-24
Jaelynn:	1945-09-24
Kenedee:	1945-09-18
Ocean:	1945-09-10
Irvin:	1945-09-07
Janice:	1945-09-02
Vinita:	1945-09-01
Haide:	1945-08-28
Jammie:	1945-08-24
Kindell:	1945-08-24
Josefina:	1945-08-16
Madgeline:	1945-08-11
Coralie:	1945-08-08
Daion:	1945-08-06
Yahye:	1945-07-24
Krissa:	1945-07-23
Maudry:	1945-07-17
Cleveland:	1945-07-10
Markel:	1945-07-07
Laresa:	1945-07-06
Pritika:	1945-07-05
Jamea:	1945-07-04
Florencio:	1945-06-25
Markeith:	1945-06-20
Margretha:	1945-06-17
Eleny:	1945-06-13
Stacey:	1945-06-10
Jaydee:	1945-06-10
Emmanuela:	1945-06-06
Judd:	1945-06-01
Aynsley:	1945-05-28
Josedavid:	1945-05-28
Suriah:	1945-05-23
Leandra:	1945-05-22
Cullan:	1945-05-13
Meggin:	1945-05-12
Jaime:	1945-05-06
Elidia:	1945-05-06
Raiford:	1945-05-05
Kania:	1945-05-03
Hansen:	1945-05-02
Welton:	1945-05-01
Maribeth:	1945-04-27
Lorese:	1945-04-26
Soua:	1945-04-25
Devonda:	1945-04-24
Lavenia:	1945-04-23
Yasmeena:	1945-04-23
Carlene:	1945-04-22
Nestor:	1945-04-19
Esther:	1945-04-19
Bessie:	1945-04-15
Dominick:	1945-04-10
Zykeem:	1945-04-07
Martha:	1945-03-27
Karalee:	1945-03-19
Lavaughn:	1945-03-17
Gavyn:	1945-03-16
Collis:	1945-03-14
Braelen:	1945-03-12
Brissia:	1945-03-11
Lindzee:	1945-03-07
Makesha:	1945-03-07
Branson:	1945-03-02
Andrejs:	1945-03-02
Christobal:	1945-02-27
Robertson:	1945-02-27
Colleen:	1945-02-24
Bill:	1945-02-22
Claude:	1945-02-22
Elsie:	1945-02-21
Demarko:	1945-02-21
Adalia:	1945-02-20
Marcellus:	1945-02-12
Alayne:	1945-02-08
Jaimey:	1945-02-07
Mariadelcarmen:	1945-02-04
Aurthur:	1945-02-01
Darien:	1945-01-26
Lucian:	1945-01-24
Jesslin:	1945-01-24
Wilburn:	1945-01-15
Colon:	1945-01-11
Lizbeth:	1945-01-07
Clifton:	1945-01-04
Leatrice:	1945-01-03
Jame:	1945-01-03
Billye:	1945-01-03
Tula:	1944-12-22
Alsha:	1944-12-22
Angelin:	1944-12-20
Verlin:	1944-12-18
Levy:	1944-12-16
Blessen:	1944-12-15
Tranell:	1944-12-06
Dupree:	1944-12-04
Aason:	1944-12-02
Sharman:	1944-11-22
Wendy:	1944-11-18
Caleb:	1944-11-17
Erick:	1944-11-17
Georgi:	1944-11-04
Vianka:	1944-10-27
Eward:	1944-10-27
Malai:	1944-10-15
Roby:	1944-10-15
Julee:	1944-10-11
Mika:	1944-10-09
Caysen:	1944-10-07
Lavender:	1944-10-06
Chadley:	1944-09-14
Castella:	1944-09-14
Kayanna:	1944-09-13
Lillianne:	1944-09-06
Nijah:	1944-09-05
Thyda:	1944-09-05
Lonzy:	1944-09-02
Newt:	1944-09-02
Lilliemae:	1944-08-28
Kirby:	1944-08-25
Lincoln:	1944-08-23
Grayson:	1944-08-21
Douglass:	1944-08-17
Wiley:	1944-08-09
Calyx:	1944-08-08
Densil:	1944-08-04
Annalisha:	1944-07-28
Jameria:	1944-07-18
Yulisa:	1944-07-14
Montia:	1944-07-13
Zarianna:	1944-07-06
Aleph:	1944-07-04
Jaque:	1944-06-28
Chester:	1944-06-23
Albert:	1944-06-21
Mellie:	1944-06-19
Jannifer:	1944-06-14
Vedder:	1944-06-14
Llewellyn:	1944-06-11
Christopherlee:	1944-05-27
Eyad:	1944-05-19
Annetta:	1944-05-16
Brigston:	1944-05-13
Houston:	1944-05-08
Gurkirat:	1944-05-05
Belkis:	1944-05-04
Daylyn:	1944-05-01
Damont:	1944-04-26
Iva:	1944-04-24
Aella:	1944-04-22
Loyce:	1944-04-21
Araya:	1944-04-18
Leolia:	1944-04-08
Jakara:	1944-04-06
Lysandra:	1944-03-26
Todrick:	1944-03-20
Mashelle:	1944-03-20
Naiya:	1944-03-20
Kiriaki:	1944-03-18
Saud:	1944-03-13
Hildegard:	1944-03-12
Jya:	1944-03-06
Lanessa:	1944-03-05
Marely:	1944-02-26
Gordon:	1944-02-23
Rebecca:	1944-02-22
Freddie:	1944-02-14
Vernell:	1944-02-04
Amaris:	1944-02-01
Dartagnan:	1944-01-27
Xenia:	1944-01-26
Darieon:	1944-01-23
Shannalee:	1944-01-17
Florian:	1944-01-16
Lidia:	1944-01-13
Shanell:	1944-01-04
Abbygale:	1943-12-27
Leland:	1943-12-23
Emry:	1943-12-18
Jhael:	1943-12-11
Robinson:	1943-12-11
Venera:	1943-12-09
Gwendolyn:	1943-12-09
Kenyata:	1943-12-08
Betheny:	1943-12-02
Lesia:	1943-11-26
Price:	1943-11-22
Khiara:	1943-11-22
Summerlynn:	1943-11-21
Linus:	1943-11-09
Kavion:	1943-11-08
Inocencio:	1943-11-07
Kambrie:	1943-11-06
Tondelayo:	1943-11-02
Rafeal:	1943-10-27
Hyman:	1943-10-25
Aljean:	1943-10-24
Fischer:	1943-10-22
Paraskevi:	1943-10-20
Raymonda:	1943-10-17
Garhett:	1943-10-13
Jakob:	1943-10-07
Arch:	1943-09-25
Jishnu:	1943-09-12
Trinh:	1943-09-04
Chariti:	1943-09-02
Laylynn:	1943-09-02
Theone:	1943-09-01
Mardelle:	1943-08-27
Kwesi:	1943-08-27
Roland:	1943-08-24
Hans:	1943-08-22
Leroy:	1943-08-20
Karel:	1943-08-19
Lanah:	1943-08-19
Torre:	1943-08-18
Jillyan:	1943-08-15
Nydia:	1943-08-13
Kyrsta:	1943-08-09
Arrie:	1943-08-08
Mabel:	1943-08-03
Wendelyn:	1943-08-02
Tisha:	1943-07-28
Randyn:	1943-07-23
Cherice:	1943-07-11
Placido:	1943-07-09
Wendall:	1943-07-05
Michaelpaul:	1943-07-04
Early:	1943-07-01
Ofir:	1943-06-27
Torey:	1943-06-24
Donalda:	1943-06-08
Rahshan:	1943-06-03
Drevion:	1943-06-02
Aimee:	1943-05-25
Sammie:	1943-05-22
Treniece:	1943-05-20
Kenleigh:	1943-05-18
Mable:	1943-05-17
Alzada:	1943-05-14
Damon:	1943-05-09
Geanette:	1943-05-08
Misha:	1943-05-08
Gilberto:	1943-05-05
Jamarr:	1943-05-05
Pepe:	1943-05-04
Diamond:	1943-05-03
Lequan:	1943-05-03
Lilibeth:	1943-04-23
Rahcel:	1943-04-23
Austine:	1943-04-22
Benito:	1943-04-21
Dammian:	1943-04-16
Eunice:	1943-04-12
Carron:	1943-04-11
Julieanna:	1943-04-11
Brin:	1943-04-07
Jacques:	1943-03-27
Micaiah:	1943-03-25
Waldean:	1943-03-21
Moroni:	1943-03-19
Roiann:	1943-03-16
Karesa:	1943-03-14
Freida:	1943-03-08
Dominica:	1943-03-04
Lia:	1943-03-03
Deleon:	1943-02-27
Ronak:	1943-02-27
Adrianne:	1943-02-21
Elmo:	1943-02-20
Ridley:	1943-02-17
Alexxis:	1943-02-11
Lenard:	1943-02-09
Alphonso:	1943-02-06
Stacie:	1943-02-06
Tighe:	1943-02-06
Kimbra:	1943-02-03
Sonnie:	1943-02-03
Aeris:	1943-02-02
Seager:	1943-02-02
Lisett:	1943-01-28
Tyasha:	1943-01-20
Rhianna:	1943-01-18
Waylan:	1943-01-17
Adalberto:	1943-01-14
Karmella:	1943-01-09
Soffia:	1943-01-06
Ilaina:	1943-01-05
Morgane:	1943-01-04
Jerritt:	1943-01-04
Khalila:	1942-12-26
Bennye:	1942-12-23
Merrisa:	1942-12-22
Eulogio:	1942-12-20
Delane:	1942-12-19
Duan:	1942-12-18
Bryson:	1942-12-17
Jacqualyn:	1942-12-13
Ireene:	1942-11-22
Katherine:	1942-11-19
Genisis:	1942-11-16
Nelida:	1942-11-05
Sunny:	1942-11-04
Sharmaine:	1942-11-03
Trejon:	1942-11-03
Carlo:	1942-11-02
Lorilee:	1942-10-23
Idona:	1942-10-21
Tyeisha:	1942-10-20
Jestin:	1942-10-19
Doctor:	1942-10-19
Deandre:	1942-10-16
Ethelreda:	1942-10-16
Migel:	1942-10-14
Rileigh:	1942-10-13
Frazier:	1942-10-13
Rogelio:	1942-10-12
Rosamaria:	1942-10-10
Oluwakemi:	1942-10-07
Kiandra:	1942-10-06
Ingram:	1942-10-04
Keddrick:	1942-10-02
Khalea:	1942-10-01
Carron:	1942-10-01
Amira:	1942-10-01
Tavish:	1942-09-27
Granvil:	1942-09-24
Nico:	1942-09-23
Talbert:	1942-09-22
Kiyoko:	1942-09-20
Sparrow:	1942-09-19
Cephas:	1942-09-15
Carmin:	1942-09-09
Queen:	1942-09-09
Ezell:	1942-09-01
Rheda:	1942-08-25
Shirley:	1942-08-23
Joylene:	1942-08-21
Talisa:	1942-08-19
Ronnell:	1942-08-16
Maudean:	1942-08-10
Velva:	1942-08-03
Valen:	1942-07-28
Jason:	1942-07-25
Kadafi:	1942-07-20
Micah:	1942-07-18
Bridget:	1942-07-17
Olivette:	1942-07-17
Adith:	1942-07-16
Sharra:	1942-07-08
Lilliane:	1942-07-07
Aime:	1942-07-06
Adriaunna:	1942-06-26
Korrine:	1942-06-24
Audrie:	1942-06-23
Darletta:	1942-06-18
Mariann:	1942-06-10
Jazmon:	1942-06-05
Orbin:	1942-06-04
Jacquelyne:	1942-06-03
Star:	1942-06-03
Sendy:	1942-05-26
Shelaine:	1942-05-25
Chris:	1942-05-22
Deidra:	1942-05-18
Janeya:	1942-05-18
Erza:	1942-05-14
Hilliard:	1942-05-11
Hays:	1942-05-07
Hyun:	1942-04-27
Shereen:	1942-04-21
Ikeya:	1942-04-12
Lidia:	1942-04-08
Fatimatou:	1942-04-04
Moriah:	1942-03-28
Aracelis:	1942-03-22
Marea:	1942-03-18
Malajah:	1942-03-17
Paige:	1942-03-08
Anasia:	1942-03-08
Zohar:	1942-03-07
Karson:	1942-03-05
Verle:	1942-03-04
Onie:	1942-03-01
Reba:	1942-02-28
Sheritta:	1942-02-28
Bb:	1942-02-25
Jamicah:	1942-02-23
Flavia:	1942-02-19
Analiz:	1942-02-18
Waldo:	1942-02-17
Aric:	1942-02-14
Brianah:	1942-02-13
Riddhi:	1942-02-13
Demetris:	1942-02-11
Auburn:	1942-02-07
Tomas:	1942-02-06
Littie:	1942-02-06
Khilee:	1942-02-03
Caprice:	1942-02-03
Dann:	1942-01-21
Amoni:	1942-01-14
Wynona:	1942-01-14
Bg:	1942-01-10
Dell:	1942-01-10
Koran:	1942-01-06
Halbert:	1942-01-06
Radine:	1942-01-06
Dina:	1942-01-03
Denayah:	1942-01-02
Mikai:	1941-12-24
Jaeli:	1941-12-24
Linus:	1941-12-23
Annette:	1941-12-20
Reola:	1941-12-20
Marycatherine:	1941-12-18
Gili:	1941-12-18
Hester:	1941-12-15
Hollye:	1941-12-11
Columbus:	1941-12-07
Jimmye:	1941-12-06
Keneisha:	1941-12-06
Stormi:	1941-12-06
Meghan:	1941-12-04
Dawsyn:	1941-12-02
Calissa:	1941-12-01
Tuyet:	1941-11-24
Gwenlyn:	1941-11-23
Emerick:	1941-11-15
Compton:	1941-11-12
Stanisha:	1941-11-08
Stehen:	1941-11-05
Alik:	1941-11-04
Esequiel:	1941-11-02
Suzie:	1941-10-28
Ashantia:	1941-10-24
Meleia:	1941-10-20
Ygnacio:	1941-10-17
Olen:	1941-10-15
Michael:	1941-10-13
Ronette:	1941-10-07
Otila:	1941-10-06
Jayshawn:	1941-10-04
Shaneen:	1941-10-03
Jayvyn:	1941-10-02
Ellanore:	1941-10-02
Laisha:	1941-09-28
Jonan:	1941-09-14
Percilla:	1941-09-11
Dominick:	1941-09-07
Ulises:	1941-09-07
Rosina:	1941-08-28
Kiona:	1941-08-22
Anelly:	1941-08-18
Unknown:	1941-08-16
Ean:	1941-08-14
Reno:	1941-08-13
Jenicka:	1941-08-12
Quinlynn:	1941-08-12
Anelisa:	1941-08-11
Sion:	1941-08-11
Gracelynn:	1941-08-08
Jaimeson:	1941-08-02
Kadeem:	1941-07-26
Larah:	1941-07-25
Mesha:	1941-07-24
Kiante:	1941-07-23
Ausencio:	1941-07-21
Sanjitha:	1941-07-16
Laquinda:	1941-07-08
Knoxx:	1941-07-05
Syrus:	1941-07-04
Le:	1941-06-25
Riddhi:	1941-06-24
Rafan:	1941-06-15
Delecia:	1941-06-09
Kemal:	1941-06-06
Savalas:	1941-06-02
Thorne:	1941-05-27
Hadia:	1941-05-16
Tate:	1941-05-12
Zana:	1941-05-11
Art:	1941-05-09
Queen:	1941-05-06
Chanse:	1941-05-05
Vickiann:	1941-04-24
Samone:	1941-04-24
Derrica:	1941-04-18
Tracey:	1941-04-14
Shreeya:	1941-04-05
Gittel:	1941-04-04
Faiza:	1941-04-02
Ovie:	1941-03-27
Shadeed:	1941-03-26
Arieana:	1941-03-23
Bernedette:	1941-03-19
Ed:	1941-03-18
Amran:	1941-03-12
Demtrius:	1941-03-11
Edythe:	1941-03-09
Geoffrey:	1941-03-08
Jeanne:	1941-03-05
Alexis:	1941-02-24
Hodan:	1941-02-23
Corliss:	1941-02-21
Kory:	1941-02-18
Freda:	1941-02-15
Ichael:	1941-02-12
Lelani:	1941-02-10
Ebbie:	1941-02-09
Halana:	1941-02-07
Lois:	1941-02-03
Jerico:	1941-02-03
Rishabh:	1941-01-28
Adelita:	1941-01-25
Marymargaret:	1941-01-23
Kaysen:	1941-01-16
Kacey:	1941-01-15
Rondalyn:	1941-01-14
Alizza:	1941-01-14
Amarii:	1941-01-12
Leilanni:	1941-01-10
Arizona:	1941-01-03
Shanie:	1941-01-02
Claudia:	1940-12-26
Arley:	1940-12-22
Pecola:	1940-12-16
Kerilynn:	1940-12-11
Doris:	1940-12-02
Kayci:	1940-11-26
Melchor:	1940-11-20
Rashana:	1940-11-20
Juanita:	1940-11-16
Olanda:	1940-10-19
Jenavy:	1940-10-16
Elzina:	1940-10-07
Angeline:	1940-10-06
Ondrea:	1940-10-05
Hampton:	1940-10-03
Pooja:	1940-10-01
Magaline:	1940-09-26
Sylvester:	1940-09-22
Rana:	1940-09-21
Epsie:	1940-09-21
Cache:	1940-09-18
Teena:	1940-09-16
Reshard:	1940-09-15
Tuvia:	1940-09-10
John:	1940-09-07
Santanna:	1940-09-02
Jacquelyn:	1940-08-27
Frenchie:	1940-08-26
Claiborne:	1940-08-26
Velta:	1940-08-20
Khayree:	1940-08-15
Afia:	1940-08-10
Jenny:	1940-08-09
Patton:	1940-08-02
Guinn:	1940-07-28
Lorriane:	1940-07-27
Mehnaz:	1940-07-26
Concetta:	1940-07-26
Iram:	1940-07-19
Karoline:	1940-07-04
Rex:	1940-07-01
Bob:	1940-06-22
Elyahna:	1940-06-19
Melissa:	1940-06-11
Whitney:	1940-06-10
Rayford:	1940-06-09
Nekisha:	1940-06-08
Harlin:	1940-06-08
Madeline:	1940-06-04
Dupree:	1940-06-02
Brook:	1940-05-25
Tianny:	1940-05-20
Lee:	1940-05-18
Dino:	1940-05-17
Ginny:	1940-05-09
Hayat:	1940-05-03
Ryne:	1940-05-01
Winfred:	1940-05-01
Rosean:	1940-04-26
Doris:	1940-04-25
Elmore:	1940-04-25
Remi:	1940-04-23
Amelianna:	1940-04-22
Alyn:	1940-04-16
Anaclara:	1940-04-14
Deveion:	1940-04-11
Cleon:	1940-04-07
Shruti:	1940-04-02
Posey:	1940-03-20
Kevonta:	1940-03-18
Jaidev:	1940-03-14
Oluwaferanmi:	1940-03-09
Charidy:	1940-03-07
Lajarvis:	1940-03-03
Tung:	1940-02-26
Lynnda:	1940-02-19
Kaliope:	1940-02-16
Wynette:	1940-02-10
Wendell:	1940-02-03
Leann:	1940-01-28
Tiahna:	1940-01-17
Charizma:	1940-01-05
Jerrilyn:	1939-12-18
Enid:	1939-12-16
Stevi:	1939-12-15
Erlinda:	1939-12-11
Sadia:	1939-12-09
Jowell:	1939-12-09
Akeila:	1939-12-08
Torrie:	1939-12-04
Vinnie:	1939-12-03
Mayda:	1939-11-23
Karrington:	1939-11-20
Venie:	1939-11-20
Jadie:	1939-11-18
Shanti:	1939-11-17
Eulalio:	1939-11-16
Ople:	1939-11-11
Dashawna:	1939-11-10
Alyvia:	1939-11-09
Zohan:	1939-11-05
Shiara:	1939-11-03
Lashara:	1939-10-26
Mabrie:	1939-10-22
Crist:	1939-10-13
Sheelah:	1939-09-26
Quida:	1939-09-18
Marleen:	1939-09-17
Masyn:	1939-09-14
Antavius:	1939-09-03
Seferino:	1939-08-28
Iysiss:	1939-08-16
Amyjo:	1939-08-13
Melissaann:	1939-08-08
Desire:	1939-07-21
Saima:	1939-07-13
Tyten:	1939-07-11
Avorie:	1939-07-09
Clara:	1939-07-08
Kane:	1939-07-06
Jamel:	1939-06-27
Temaka:	1939-06-25
Cele:	1939-06-21
Maurine:	1939-06-12
Ayoub:	1939-06-07
Makhi:	1939-06-03
Beverley:	1939-05-23
Bernadette:	1939-05-19
Jacqualin:	1939-05-17
Billey:	1939-05-15
Finis:	1939-05-12
Marlynn:	1939-05-10
Thaliah:	1939-05-09
Imothy:	1939-05-08
Audree:	1939-05-05
Karynne:	1939-05-04
Jamilet:	1939-04-28
Phil:	1939-04-24
Asencion:	1939-04-21
Emmarie:	1939-03-28
Kerstyn:	1939-03-27
Diarra:	1939-03-15
Ebert:	1939-03-12
Kevion:	1939-03-11
Marget:	1939-03-10
Dontavia:	1939-02-26
Darryl:	1939-02-25
Jaymes:	1939-02-22
Flo:	1939-02-17
Steward:	1939-02-17
Donie:	1939-02-14
Marvel:	1939-02-13
Jesselyn:	1939-02-10
Reva:	1939-02-10
Petrona:	1939-01-26
Valene:	1939-01-21
Chris:	1939-01-16
Lou:	1939-01-16
Gershon:	1939-01-15
Drexel:	1939-01-04
Gladys:	1939-01-01
Jansiel:	1938-12-24
Isaac:	1938-12-24
Raine:	1938-12-18
Evlyn:	1938-12-17
Yonatan:	1938-12-15
Fayette:	1938-12-14
Link:	1938-12-12
Kraig:	1938-12-04
Theophilus:	1938-11-27
Vesta:	1938-11-25
January:	1938-11-22
Anamaria:	1938-11-22
Charlcie:	1938-11-20
Aksha:	1938-11-15
Hale:	1938-11-14
Ezel:	1938-11-11
Joleen:	1938-11-11
Klarity:	1938-11-06
Shubham:	1938-11-03
Leonce:	1938-11-02
Ken:	1938-11-02
India:	1938-10-24
Tracie:	1938-10-22
Srikrishna:	1938-10-18
Sanya:	1938-10-16
Khori:	1938-10-15
Charon:	1938-10-15
Maile:	1938-10-09
Kurstin:	1938-10-04
Taichi:	1938-10-04
Alexzandra:	1938-10-03
Hailie:	1938-10-03
Dezeree:	1938-09-25
Coby:	1938-09-19
Raymund:	1938-09-18
Terel:	1938-09-16
Rishab:	1938-09-15
Laymon:	1938-09-10
Modell:	1938-09-08
Valkyrie:	1938-09-08
Lazarus:	1938-08-28
Ronan:	1938-08-23
Ilana:	1938-08-23
Shreya:	1938-08-22
Mckay:	1938-08-21
Sabina:	1938-08-21
Megan:	1938-08-21
Jaryah:	1938-08-20
Logon:	1938-08-17
Takeo:	1938-08-03
Kaiah:	1938-07-28
Terrell:	1938-07-27
Joseth:	1938-07-23
North:	1938-07-22
Jaris:	1938-07-18
Elchonon:	1938-07-15
Thelma:	1938-07-12
Colon:	1938-07-12
Cali:	1938-07-07
Sisto:	1938-07-03
Brigitta:	1938-07-02
Jet:	1938-06-28
Delmus:	1938-06-20
Cristin:	1938-06-14
Candra:	1938-06-13
Taegen:	1938-06-09
Reyansh:	1938-06-09
Fadumo:	1938-06-04
Teodulo:	1938-06-01
Carlen:	1938-05-26
Clea:	1938-05-23
Jakyria:	1938-05-09
Peyton:	1938-05-09
Katlen:	1938-05-05
Renisha:	1938-05-04
Kemberly:	1938-04-28
Marge:	1938-04-27
Kamiyah:	1938-04-23
Christon:	1938-04-23
Mortimer:	1938-04-20
Euel:	1938-04-18
Marry:	1938-04-17
Roxana:	1938-04-14
Louis:	1938-04-08
Reed:	1938-04-04
Percilla:	1938-03-28
Nima:	1938-03-26
Kayla:	1938-03-23
William:	1938-03-22
Reah:	1938-03-17
Weber:	1938-03-17
Khloey:	1938-03-16
Windi:	1938-03-15
Naysa:	1938-03-11
Selma:	1938-03-11
Athena:	1938-03-10
Serene:	1938-03-09
Abir:	1938-03-03
Latron:	1938-02-24
Jane:	1938-02-22
Mathias:	1938-02-17
Cheston:	1938-02-15
Sagal:	1938-02-09
Anaya:	1938-02-09
Cindy:	1938-02-08
Addie:	1938-02-06
Skip:	1938-02-05
Caylani:	1938-02-03
Khalilah:	1938-01-27
Alister:	1938-01-25
Vassie:	1938-01-19
Eddy:	1938-01-19
Tashyia:	1938-01-18
Chapin:	1938-01-17
Tierre:	1938-01-11
Annalynne:	1938-01-10
Eugene:	1938-01-04
Jebediah:	1937-12-26
Melina:	1937-12-17
Tashay:	1937-12-10
Kiet:	1937-12-08
Bryson:	1937-12-04
Quintin:	1937-12-02
Douglas:	1937-12-01
Noelly:	1937-11-28
Crist:	1937-11-27
Prescilla:	1937-11-25
Reina:	1937-11-16
Carolene:	1937-11-14
Jaden:	1937-11-13
Chelce:	1937-11-11
Killian:	1937-10-18
Carlotta:	1937-10-14
Gwenith:	1937-10-12
Kamdin:	1937-10-08
Guiseppe:	1937-10-06
Antwon:	1937-10-06
Evelynn:	1937-09-19
Salathiel:	1937-09-08
Keema:	1937-09-06
Mada:	1937-09-04
Emilyjo:	1937-09-04
Chucky:	1937-09-03
Mertis:	1937-09-02
Reeta:	1937-09-01
Quinci:	1937-08-24
Apryl:	1937-08-24
Cayman:	1937-08-20
Savannha:	1937-08-15
Graylon:	1937-08-15
Mardelle:	1937-08-12
Alizabeth:	1937-08-11
Nathaniel:	1937-08-05
Pete:	1937-08-04
Stella:	1937-08-04
Hoa:	1937-08-02
Lizet:	1937-08-02
Sanam:	1937-07-25
Lenzie:	1937-07-23
Emory:	1937-07-22
Keela:	1937-07-16
Georgie:	1937-07-06
Asberry:	1937-06-19
Cristine:	1937-06-12
Floris:	1937-06-10
Ladon:	1937-06-09
Anacaren:	1937-06-05
Gay:	1937-05-27
Shanai:	1937-05-20
Jachin:	1937-05-20
Kadarrius:	1937-05-16
Mohini:	1937-05-16
Maren:	1937-05-15
Orvin:	1937-05-14
Cheyenne:	1937-05-07
Iralyn:	1937-05-06
Yi:	1937-05-06
Aaraf:	1937-05-02
Kaiven:	1937-05-01
Aleasha:	1937-04-27
Isidro:	1937-04-23
Mirai:	1937-04-17
Ileigh:	1937-04-16
Ara:	1937-04-14
Isajah:	1937-04-07
Kelsee:	1937-04-05
Corynne:	1937-04-02
Corrine:	1937-03-28
Cristan:	1937-03-26
Corin:	1937-03-20
Ladawn:	1937-03-14
Lillia:	1937-03-13
Rubie:	1937-03-13
Ayleen:	1937-03-04
Mallissa:	1937-02-28
Richmond:	1937-02-25
Selin:	1937-02-17
Miriam:	1937-02-15
Dora:	1937-02-14
Tayvion:	1937-01-27
Merliah:	1937-01-26
Delshawn:	1937-01-25
Qianna:	1937-01-24
Cornel:	1937-01-22
Tandy:	1937-01-20
Javaris:	1937-01-16
Wava:	1937-01-16
Brayanna:	1937-01-09
Matti:	1937-01-01
Zyaira:	1936-12-27
Denys:	1936-12-26
Maile:	1936-12-18
Sherrie:	1936-12-16
Robynne:	1936-12-15
Maretta:	1936-12-14
Kealan:	1936-12-12
Davidmichael:	1936-12-12
Lorena:	1936-12-09
Cariana:	1936-12-09
Nasario:	1936-12-06
Ellena:	1936-12-06
Sherone:	1936-11-26
Melody:	1936-10-26
Lashawn:	1936-10-14
Makoa:	1936-10-14
Hermina:	1936-10-06
Kensei:	1936-09-26
Jarrel:	1936-09-26
Frederico:	1936-09-24
Paulene:	1936-09-24
Alene:	1936-09-17
Json:	1936-09-16
Nereida:	1936-09-13
Louis:	1936-09-09
Wolfram:	1936-09-07
Kasey:	1936-09-05
Laylaa:	1936-09-01
Vivi:	1936-08-28
Arden:	1936-08-26
Imberly:	1936-08-23
Adilynn:	1936-08-23
Rachard:	1936-08-17
Tipton:	1936-08-17
Amaan:	1936-08-13
Florrie:	1936-08-13
Gara:	1936-08-08
Dejuan:	1936-08-05
Angeli:	1936-07-27
Alaska:	1936-07-22
Aydan:	1936-07-22
Justine:	1936-07-15
Della:	1936-07-14
Earlie:	1936-07-08
Izola:	1936-07-05
Terrel:	1936-07-04
Bronte:	1936-07-03
Iman:	1936-06-27
Kelle:	1936-06-23
Elissa:	1936-06-15
Anali:	1936-06-14
Yari:	1936-06-14
Birchard:	1936-06-13
Bernell:	1936-06-13
Noella:	1936-06-09
Jaekwon:	1936-06-02
Keagan:	1936-05-11
Vannie:	1936-05-06
Maycie:	1936-04-20
Aedon:	1936-04-18
Keylin:	1936-04-14
Milan:	1936-04-11
Angeleena:	1936-04-06
Arthur:	1936-04-06
Girtie:	1936-04-06
Moreno:	1936-04-06
Isiaah:	1936-04-05
Bo:	1936-04-01
Yvette:	1936-03-24
Cason:	1936-03-02
Else:	1936-03-01
Darline:	1936-02-28
Italy:	1936-02-15
Lorene:	1936-02-11
Nayef:	1936-02-10
Collier:	1936-02-09
Rianshi:	1936-01-25
Pinkie:	1936-01-09
Christana:	1936-01-02
Catalino:	1936-01-01
Darius:	1935-12-26
Anam:	1935-12-23
Leticia:	1935-12-18
Timonthy:	1935-12-17
Levenia:	1935-12-11
Gerilyn:	1935-12-10
Loralee:	1935-12-09
Annella:	1935-12-04
Zayvion:	1935-11-26
Felipe:	1935-11-25
Shepard:	1935-11-25
Aesir:	1935-11-23
Sherika:	1935-11-18
Ivery:	1935-11-15
Jacksen:	1935-11-14
Anissia:	1935-11-12
Letticia:	1935-11-09
Noriko:	1935-11-05
Katherine:	1935-11-04
Letcher:	1935-10-27
Gilberta:	1935-10-23
Raymundo:	1935-10-22
Dock:	1935-10-20
Abrar:	1935-10-17
Delwyn:	1935-10-15
Roxana:	1935-10-15
Oluchi:	1935-10-10
Kasidee:	1935-10-10
Matthieu:	1935-10-05
Evetta:	1935-10-02
Ellason:	1935-10-01
Denise:	1935-09-26
Aubriana:	1935-09-18
Hallee:	1935-09-07
Steve:	1935-08-27
Drusilla:	1935-08-27
Tokunbo:	1935-08-24
Beverlee:	1935-08-20
Hydia:	1935-08-13
Vicki:	1935-08-11
Belia:	1935-07-26
Jayln:	1935-07-24
Yuriy:	1935-07-21
Margie:	1935-07-16
Rosalee:	1935-07-15
Kodi:	1935-07-14
Keirstin:	1935-07-12
Rayford:	1935-07-10
Louie:	1935-07-10
Karionna:	1935-07-08
Donovan:	1935-07-08
Anglie:	1935-07-07
Nylah:	1935-07-02
Aven:	1935-07-01
Anaysia:	1935-06-27
Anjely:	1935-06-25
Katieann:	1935-06-25
Indya:	1935-06-22
Jesusalberto:	1935-06-12
Horacio:	1935-06-05
Carver:	1935-06-04
Ralf:	1935-05-28
Jonas:	1935-05-24
Tameika:	1935-05-22
Loui:	1935-05-20
Truett:	1935-05-19
Dylana:	1935-05-19
Katy:	1935-05-12
Jatziri:	1935-05-05
Alyza:	1935-04-24
Talonda:	1935-04-20
Derwin:	1935-04-19
Darin:	1935-04-19
Azzie:	1935-04-18
Jakara:	1935-04-17
Alley:	1935-04-12
Alyza:	1935-04-03
Katelynn:	1935-03-21
Apryl:	1935-03-21
Javon:	1935-03-19
Britteny:	1935-03-18
Jailyn:	1935-03-17
Maziyah:	1935-03-16
Menachem:	1935-03-16
Bradlee:	1935-03-11
Dom:	1935-03-08
Ethelyn:	1935-03-07
Thaddeus:	1935-03-05
Zofia:	1935-03-01
Aleisha:	1935-02-28
Broch:	1935-02-25
Edwena:	1935-02-24
Kerryn:	1935-02-14
Quatrina:	1935-02-12
Gemma:	1935-02-05
Errol:	1935-02-04
Vincente:	1935-02-02
Euna:	1935-02-01
Maya:	1935-01-27
Dyron:	1935-01-26
Cianna:	1935-01-22
Kolbi:	1935-01-22
Lanetta:	1935-01-22
Trissa:	1935-01-16
Erdem:	1934-12-28
Durward:	1934-12-28
Wade:	1934-12-24
Roshaunda:	1934-12-21
Gracy:	1934-12-17
Nelly:	1934-12-13
Doyal:	1934-12-11
Jonthan:	1934-12-09
Wadie:	1934-12-06
Lucretia:	1934-12-05
Vernell:	1934-12-03
Adella:	1934-11-26
Ruel:	1934-11-26
Phi:	1934-11-16
Zaire:	1934-11-14
Leuna:	1934-11-09
Tyneisha:	1934-10-24
Chaela:	1934-10-23
Evanell:	1934-10-22
Linna:	1934-10-21
Camila:	1934-10-16
Clarence:	1934-10-14
Lynley:	1934-09-27
Kaylee:	1934-09-26
Eula:	1934-09-22
Debera:	1934-09-16
Morgana:	1934-09-15
Janneli:	1934-09-13
Ivon:	1934-09-12
Christopher:	1934-08-28
Judge:	1934-08-26
Chery:	1934-08-24
Payton:	1934-08-20
Neville:	1934-08-20
Marat:	1934-08-15
Calena:	1934-08-14
Adelice:	1934-08-11
Joesphine:	1934-08-10
Kathyann:	1934-08-08
Janine:	1934-08-01
Jamele:	1934-07-20
Zaida:	1934-07-15
Ivory:	1934-07-02
Thomas:	1934-06-27
Sherah:	1934-06-23
Santo:	1934-06-09
Lynden:	1934-06-02
Elek:	1934-05-21
Ayriel:	1934-05-19
Titilayo:	1934-05-16
Matiana:	1934-05-15
Lala:	1934-05-11
Jaelen:	1934-05-02
Tora:	1934-04-25
Laberta:	1934-04-16
Lyrik:	1934-04-13
Joshwa:	1934-04-13
Milan:	1934-04-13
Chelsee:	1934-04-05
Carvin:	1934-03-22
Job:	1934-03-22
Crissie:	1934-03-17
Mieke:	1934-03-15
Damita:	1934-03-10
Jessa:	1934-03-09
Captain:	1934-03-09
Tyanna:	1934-03-05
Nazaria:	1934-03-02
Lovene:	1934-02-18
Rosendo:	1934-02-18
Maizie:	1934-02-14
Malva:	1934-02-04
Kaytlen:	1934-02-01
Vaishali:	1934-01-27
Leocadio:	1934-01-25
Alonza:	1934-01-24
Zacharia:	1934-01-22
Dallin:	1934-01-20
Delmer:	1934-01-19
Sherrye:	1934-01-18
Panhia:	1934-01-08
Elija:	1934-01-04
Eugenie:	1934-01-01
Jesilyn:	1933-12-27
Rohin:	1933-12-19
Jandriel:	1933-12-18
Damiana:	1933-12-03
Chaley:	1933-11-28
Glynn:	1933-11-21
Miquel:	1933-11-14
Vondell:	1933-11-10
Fisher:	1933-11-08
Calynn:	1933-11-06
Annetta:	1933-11-05
Eldridge:	1933-11-04
Tyler:	1933-11-01
Inara:	1933-10-27
Janetta:	1933-10-24
Jovona:	1933-10-22
Kathryn:	1933-10-17
Costella:	1933-10-14
Herald:	1933-10-12
Kennedee:	1933-10-07
Katharyn:	1933-09-27
Quran:	1933-09-18
Lacheryl:	1933-09-14
Josefa:	1933-09-14
Kaylenn:	1933-09-14
Vivia:	1933-09-13
Chloemarie:	1933-09-08
Jahzel:	1933-09-06
Miciah:	1933-09-05
Michaeline:	1933-09-05
Hermine:	1933-09-03
Akhia:	1933-08-27
Levonia:	1933-08-27
Camar:	1933-08-26
Luana:	1933-08-19
Natalya:	1933-08-16
Dahlia:	1933-08-15
Carol:	1933-08-14
Carmine:	1933-08-10
Ivyana:	1933-08-09
Marylea:	1933-08-06
Regenia:	1933-07-25
Sache:	1933-07-20
Arden:	1933-07-20
Tsosie:	1933-07-19
Ivory:	1933-07-13
Megean:	1933-07-13
Jenne:	1933-07-07
Latwan:	1933-07-06
Shalev:	1933-07-04
Demetrica:	1933-07-03
Savilla:	1933-07-03
Fabiola:	1933-07-02
Edson:	1933-06-28
Anita:	1933-06-26
Derinda:	1933-06-24
Fannye:	1933-06-23
Fronie:	1933-06-20
Galen:	1933-06-18
Winfred:	1933-06-11
Deric:	1933-06-07
George:	1933-06-05
Taggart:	1933-06-02
Josue:	1933-06-02
Tyffany:	1933-06-02
Zelia:	1933-05-28
Manpreet:	1933-05-26
Dontray:	1933-05-19
Freddy:	1933-05-13
Jamise:	1933-05-08
Mikia:	1933-05-06
Celesta:	1933-05-05
Kiani:	1933-05-01
Delmar:	1933-05-01
Euna:	1933-04-25
Ellenor:	1933-04-21
Yoskar:	1933-04-14
Kimra:	1933-04-09
Nyshaun:	1933-04-03
Arcadio:	1933-04-03
Adaleen:	1933-04-02
Khalif:	1933-04-01
Missie:	1933-03-12
Alim:	1933-03-10
Philippe:	1933-03-07
Rollie:	1933-03-04
Eola:	1933-03-03
Susie:	1933-03-03
Levere:	1933-03-02
Conard:	1933-02-28
Eliyah:	1933-02-28
Cherryl:	1933-02-26
Selena:	1933-02-24
Josephine:	1933-02-24
Zenobia:	1933-02-22
Cayden:	1933-02-10
Yanesa:	1933-02-05
Brystol:	1933-02-05
Zelina:	1933-02-04
Kermit:	1933-02-04
Iness:	1933-01-26
Vyas:	1933-01-22
Cline:	1933-01-20
Caprice:	1933-01-17
Darien:	1933-01-16
Rondo:	1933-01-15
Adrain:	1933-01-13
Juna:	1933-01-11
Eluterio:	1933-01-10
Tujuana:	1932-12-21
Jandi:	1932-12-20
Chrystopher:	1932-12-10
Blanton:	1932-12-08
Caiya:	1932-12-04
Jermonte:	1932-11-27
Guadalupe:	1932-11-23
Queen:	1932-11-19
Vito:	1932-11-15
Yurem:	1932-11-08
Kevon:	1932-11-03
Hanna:	1932-11-03
Deane:	1932-11-03
Wolfgang:	1932-10-28
Afia:	1932-10-28
Marlayne:	1932-10-23
Canuto:	1932-10-21
Areeb:	1932-10-17
Juhi:	1932-10-14
Keshaun:	1932-09-28
Cheryl:	1932-09-28
Presten:	1932-09-17
Rakia:	1932-09-13
Avanel:	1932-09-05
Olyn:	1932-08-24
Ananias:	1932-08-22
Nissy:	1932-08-21
Georgette:	1932-08-19
Vern:	1932-08-07
Aaren:	1932-08-06
Khaleel:	1932-07-28
Jin:	1932-07-23
Vianna:	1932-07-21
Tomiko:	1932-07-10
Colie:	1932-07-08
Hettie:	1932-06-26
Angelynn:	1932-06-22
Leandra:	1932-06-18
Yvonne:	1932-06-13
Tobias:	1932-06-12
Arica:	1932-06-05
Tillman:	1932-06-04
Niraj:	1932-06-03
Daniel:	1932-05-22
Rogelio:	1932-05-17
Coni:	1932-05-12
Ramel:	1932-05-12
Zayaan:	1932-05-12
Aida:	1932-05-05
Diamonds:	1932-05-02
Dalaney:	1932-04-24
Ereka:	1932-04-20
Anida:	1932-04-17
Calissa:	1932-04-16
Ricci:	1932-04-15
Kavonte:	1932-04-14
Amiyrah:	1932-04-11
Archibald:	1932-04-05
Shaunte:	1932-03-28
David:	1932-03-27
Zaidin:	1932-03-19
Quinton:	1932-03-17
Vianey:	1932-03-15
Ainsley:	1932-03-09
Markus:	1932-03-03
Denea:	1932-02-28
Frank:	1932-02-27
Palmer:	1932-02-24
Janie:	1932-02-22
Waldemar:	1932-02-17
Andrey:	1932-02-17
Bud:	1932-02-15
Mekayla:	1932-02-10
Amouri:	1932-02-08
Christopher:	1932-02-03
Dorsa:	1932-02-02
Rocky:	1932-01-26
Jaxstyn:	1932-01-24
Lionel:	1932-01-19
Jaydel:	1932-01-15
Danaijah:	1932-01-12
Farren:	1932-01-12
Blyss:	1932-01-07
Melanye:	1932-01-05
Erla:	1931-12-16
Soniya:	1931-12-15
Franki:	1931-12-14
Seynabou:	1931-12-13
Gus:	1931-11-23
Alexxis:	1931-11-22
Conni:	1931-11-15
Shaun:	1931-11-03
Rihan:	1931-10-28
Johney:	1931-10-25
Derrick:	1931-10-25
Shandon:	1931-10-20
Florine:	1931-10-17
Meeah:	1931-10-16
Susan:	1931-10-16
Adrianne:	1931-10-15
Walker:	1931-10-14
Fabricio:	1931-10-13
Marshal:	1931-10-11
Jony:	1931-10-08
Jermya:	1931-10-08
Mio:	1931-10-06
Nanayaa:	1931-10-04
Tavis:	1931-10-02
Marceille:	1931-10-02
Alise:	1931-09-26
Dameer:	1931-09-21
Shanice:	1931-09-19
Gail:	1931-09-17
Wilbur:	1931-09-16
Thandiwe:	1931-09-16
Riki:	1931-09-15
Cash:	1931-09-14
Sherman:	1931-09-12
Morgyn:	1931-08-23
Cayetano:	1931-08-23
Laurell:	1931-08-22
Mandel:	1931-08-16
Cleota:	1931-08-15
Zonia:	1931-08-12
Andros:	1931-08-06
Jayah:	1931-08-03
Kelsey:	1931-08-03
Coy:	1931-08-02
Okey:	1931-08-02
Asuka:	1931-07-27
Golden:	1931-07-27
Alvis:	1931-07-24
Josephine:	1931-07-22
Tyreonna:	1931-07-21
Tien:	1931-07-12
Tashae:	1931-07-10
Kenadey:	1931-07-02
Caylah:	1931-06-28
Catlyn:	1931-06-28
Jilliann:	1931-06-26
Malia:	1931-06-23
Egbert:	1931-06-17
Lisandro:	1931-06-15
Saniyah:	1931-06-08
Tanna:	1931-06-06
Conway:	1931-06-03
Abdo:	1931-06-03
Jaimie:	1931-05-28
Vina:	1931-05-24
Ginette:	1931-05-21
Betsy:	1931-05-12
Macy:	1931-05-07
Jazsmine:	1931-05-06
Lalisha:	1931-05-06
Evamae:	1931-05-02
Arianis:	1931-04-16
Job:	1931-04-08
Theresia:	1931-04-07
Devorah:	1931-03-23
Melena:	1931-03-20
Aundra:	1931-03-19
Ezekiel:	1931-03-14
Makail:	1931-03-12
Rhea:	1931-03-07
Darek:	1931-03-03
Anacaren:	1931-02-28
Nabeel:	1931-02-21
Kasondra:	1931-02-17
Darius:	1931-02-16
Magda:	1931-02-14
Sholanda:	1931-02-12
Delma:	1931-02-08
Poppy:	1931-02-04
Azelyn:	1931-02-01
Jackson:	1931-02-01
Raza:	1931-01-24
Fernand:	1931-01-21
Elden:	1931-01-21
Betsie:	1931-01-17
Albino:	1931-01-12
Cadarrius:	1931-01-10
Apollo:	1931-01-07
Wilde:	1930-12-27
Shannell:	1930-12-22
Anton:	1930-12-22
Edwina:	1930-12-13
Necha:	1930-11-20
Russel:	1930-11-12
Malijah:	1930-11-10
Courtland:	1930-11-03
Georgianne:	1930-10-26
Vincente:	1930-10-19
Mariann:	1930-10-18
Camree:	1930-10-18
Brooks:	1930-10-16
Olie:	1930-10-13
Woodie:	1930-10-12
Nadirah:	1930-10-05
Darien:	1930-09-28
Zaid:	1930-09-26
Mayme:	1930-09-14
Fronia:	1930-09-14
Kemaya:	1930-09-13
Marcelyn:	1930-09-03
Gideon:	1930-09-02
Macaire:	1930-08-25
Denay:	1930-08-24
Zyona:	1930-08-22
Bailly:	1930-08-18
Brownie:	1930-08-15
Elijiah:	1930-08-15
Aurelius:	1930-08-12
Byford:	1930-08-11
Marqus:	1930-08-08
Elianis:	1930-08-07
Jeffery:	1930-08-06
Vernice:	1930-07-27
Scarlet:	1930-07-26
Gini:	1930-07-18
Danny:	1930-07-12
Raeleen:	1930-07-04
Yacine:	1930-07-01
Darlyn:	1930-06-25
Solomon:	1930-06-23
Alfretta:	1930-06-02
Alysa:	1930-06-02
Porfirio:	1930-05-23
Jahkeem:	1930-05-17
Lue:	1930-05-16
Denym:	1930-05-13
Rayann:	1930-05-06
Batoul:	1930-05-02
Spence:	1930-04-27
Armoni:	1930-04-25
Makell:	1930-04-23
Sammuel:	1930-04-19
Lejuan:	1930-04-19
Shaunte:	1930-04-16
Sarah:	1930-04-15
Nakita:	1930-04-13
Cena:	1930-04-09
Gwyn:	1930-04-09
Alyssamarie:	1930-04-09
Giovanni:	1930-04-07
Kayde:	1930-04-06
Landry:	1930-04-03
Shahid:	1930-04-02
Theodora:	1930-03-24
Stacey:	1930-03-19
Oaklyn:	1930-03-18
Selmer:	1930-03-15
Ceasia:	1930-03-13
Heywood:	1930-02-26
Jaylah:	1930-02-22
Marshell:	1930-02-22
Messiyah:	1930-02-17
Haig:	1930-02-16
Mccade:	1930-02-10
Estevan:	1930-02-09
Codee:	1930-02-02
Latika:	1930-02-01
Tanaejah:	1930-01-28
Cathlyn:	1930-01-15
Lilla:	1930-01-13
Nameera:	1930-01-10
Abbey:	1930-01-02
Jerone:	1930-01-01
Emilee:	1929-12-28
Laurena:	1929-12-27
Mahala:	1929-12-21
Makenzee:	1929-12-16
Trevon:	1929-12-06
Duval:	1929-12-06
Sindi:	1929-12-04
Vollie:	1929-12-04
Trevion:	1929-12-02
Homero:	1929-11-28
Disney:	1929-11-27
Linsey:	1929-11-22
Magaly:	1929-11-21
Alfreda:	1929-11-18
Freeda:	1929-11-16
Kairi:	1929-11-12
Elloise:	1929-11-12
Forest:	1929-11-11
Kaleema:	1929-11-10
Seriyah:	1929-11-03
Sharde:	1929-10-25
Silvana:	1929-10-22
Yisroel:	1929-10-19
Charles:	1929-10-14
Sara:	1929-10-13
Gardenia:	1929-10-13
Sherill:	1929-10-08
Rogelio:	1929-10-08
Noland:	1929-10-07
Yusuke:	1929-10-04
Nettie:	1929-09-28
Jarred:	1929-09-25
Otha:	1929-09-22
Raymond:	1929-09-21
Taras:	1929-09-21
Alysia:	1929-09-16
Crespin:	1929-09-10
Twilia:	1929-09-10
Aaliyah:	1929-09-05
Sunny:	1929-09-03
Jazabell:	1929-08-26
Musette:	1929-08-24
Mariajose:	1929-08-18
Hadlea:	1929-08-17
Jaylyn:	1929-08-14
Cami:	1929-08-14
Paulina:	1929-08-11
Rene:	1929-07-25
Jochebed:	1929-07-24
Manami:	1929-07-24
Ameria:	1929-07-22
Mychael:	1929-07-21
Starlet:	1929-07-21
Ana:	1929-07-04
Caron:	1929-07-01
Shelita:	1929-06-25
Drew:	1929-06-24
Nelli:	1929-06-21
Doniyah:	1929-06-16
Chae:	1929-06-15
Sanad:	1929-06-14
Naquan:	1929-06-13
Jeralyn:	1929-06-13
Tadd:	1929-06-12
Clemmie:	1929-06-05
Calla:	1929-06-02
Genelle:	1929-06-02
Carrieanne:	1929-05-25
Quenton:	1929-05-21
Lavone:	1929-05-20
Plez:	1929-05-16
Shenae:	1929-05-11
Jaliayah:	1929-05-01
Bella:	1929-05-01
Janel:	1929-04-26
Anova:	1929-04-17
Biagio:	1929-04-15
Alley:	1929-04-13
Skyela:	1929-04-08
Chelsie:	1929-04-03
Maryjoan:	1929-03-26
Charmion:	1929-03-25
Juanjose:	1929-03-20
Angus:	1929-03-14
Avie:	1929-03-07
Loye:	1929-02-28
Kreig:	1929-02-25
Roberta:	1929-02-25
Zyon:	1929-02-10
Palmira:	1929-02-06
Jaraad:	1929-02-02
Kinlee:	1929-02-01
Christyn:	1929-01-26
Sharlee:	1929-01-24
Mikala:	1929-01-23
Andersen:	1929-01-02
Al:	1929-01-01
Wilburn:	1928-12-24
Tahari:	1928-12-24
Dawson:	1928-12-24
Aja:	1928-12-24
Tajah:	1928-12-23
Cherylanne:	1928-12-15
Michaele:	1928-12-14
Davius:	1928-12-07
Huber:	1928-12-04
Noa:	1928-12-03
Brandan:	1928-12-02
Nikolaos:	1928-11-28
Guillermo:	1928-11-17
Pascual:	1928-11-08
Daziah:	1928-11-04
Ayeshia:	1928-10-27
Algie:	1928-10-26
Violet:	1928-10-15
Vila:	1928-10-13
Higinio:	1928-10-08
Alon:	1928-10-08
Laurel:	1928-10-04
Julieanne:	1928-10-01
Cleora:	1928-09-19
Krish:	1928-09-18
Haven:	1928-09-10
Jeanett:	1928-09-08
Devonne:	1928-09-01
Dorthea:	1928-08-27
Sanai:	1928-08-27
Marlyce:	1928-08-22
Welton:	1928-08-19
Tedra:	1928-08-11
Genna:	1928-08-05
Axel:	1928-07-26
Benoit:	1928-07-14
Carline:	1928-07-03
Verene:	1928-07-02
Wyolene:	1928-06-26
Ellamay:	1928-06-23
Tanya:	1928-06-19
Lydiah:	1928-06-17
Varad:	1928-06-12
Rashidi:	1928-06-11
Derinda:	1928-06-10
Shirleymae:	1928-06-08
Noriel:	1928-06-06
Bryseida:	1928-06-05
Jeff:	1928-06-02
Dawan:	1928-06-02
Julizza:	1928-05-25
Beverly:	1928-05-22
Emony:	1928-05-20
Hagen:	1928-05-19
Reagan:	1928-05-05
Aiden:	1928-05-04
Derrek:	1928-05-02
Emaline:	1928-04-25
Tippy:	1928-04-24
Matiana:	1928-04-10
Demetrick:	1928-04-08
Cathern:	1928-04-01
Merideth:	1928-04-01
Valerye:	1928-03-28
Okeima:	1928-03-25
Gisela:	1928-03-16
Elwood:	1928-03-15
Nassir:	1928-03-07
Emerson:	1928-03-06
Shelley:	1928-02-28
Jacqlyn:	1928-02-28
Giovan:	1928-02-26
Vivienne:	1928-02-23
Marta:	1928-02-21
Corbyn:	1928-02-21
Ginnie:	1928-02-16
Callie:	1928-02-09
Erion:	1928-02-01
Beverlee:	1928-01-25
Joleen:	1928-01-16
Jalayne:	1928-01-14
Tanai:	1928-01-10
Geraldine:	1928-01-09
Latanya:	1928-01-07
Jordi:	1928-01-06
Venda:	1927-12-27
Emilia:	1927-12-17
Seibert:	1927-12-11
Cymande:	1927-12-09
Kerrin:	1927-12-07
Chiquita:	1927-12-03
Willis:	1927-12-01
Jeila:	1927-11-28
Treavor:	1927-11-28
Isabell:	1927-11-25
Kari:	1927-11-19
Zachary:	1927-11-15
Sharrief:	1927-11-11
Thea:	1927-11-11
Glenndora:	1927-11-03
Bakari:	1927-10-26
Leodis:	1927-10-18
Hadyn:	1927-10-15
Dejuan:	1927-10-13
Gianno:	1927-10-12
Shelia:	1927-10-11
Dara:	1927-10-11
Gray:	1927-10-08
Kelten:	1927-10-04
Alban:	1927-09-26
Tykesha:	1927-09-24
Domonick:	1927-09-21
Ibrahima:	1927-09-14
Mamadou:	1927-09-09
Dawne:	1927-09-07
Romaine:	1927-09-06
Teresita:	1927-08-25
Ree:	1927-08-22
Manasa:	1927-08-14
Isaac:	1927-08-09
Amandalynn:	1927-08-09
Marti:	1927-08-06
Bonniejean:	1927-08-06
Dakotah:	1927-08-05
Corie:	1927-08-02
Ellia:	1927-07-23
Orman:	1927-07-23
Ellie:	1927-07-15
Jissel:	1927-07-12
Mammie:	1927-07-10
Kemarrion:	1927-07-10
Keyana:	1927-07-09
Shenna:	1927-07-05
Michalle:	1927-06-27
Aleksandar:	1927-06-23
Tavaris:	1927-06-22
Alexa:	1927-06-21
Louella:	1927-06-18
Zsazsa:	1927-06-13
Svara:	1927-06-10
Delphina:	1927-06-06
Disa:	1927-06-04
Hayle:	1927-06-03
Marilla:	1927-05-26
Lilly:	1927-05-17
Srihita:	1927-05-15
Charles:	1927-05-12
Axel:	1927-05-10
Shmuel:	1927-05-09
Leul:	1927-05-05
Nicolas:	1927-04-23
Ruth:	1927-04-22
Gabriella:	1927-04-12
Ayman:	1927-04-07
Seanne:	1927-03-24
Merrell:	1927-03-17
Stefania:	1927-03-14
Romando:	1927-03-11
Raine:	1927-03-06
Haig:	1927-03-03
Adesuwa:	1927-03-02
Eloy:	1927-02-25
Carmen:	1927-02-25
Ronell:	1927-02-09
Avanelle:	1927-02-08
Synda:	1927-02-06
Anum:	1927-02-03
Kento:	1927-02-03
Danyel:	1927-02-01
Laurance:	1927-01-28
Leah:	1927-01-26
Bettylou:	1927-01-23
Deleyza:	1927-01-20
Lula:	1927-01-18
Arnaldo:	1927-01-16
Margareta:	1927-01-16
Thom:	1927-01-13
Cylan:	1927-01-13
Ginelle:	1927-01-13
Shalee:	1927-01-03
Shelia:	1927-01-01
Ashari:	1926-12-24
Feliberto:	1926-12-19
Rosy:	1926-12-14
Evvie:	1926-12-12
Cristina:	1926-12-10
Herbert:	1926-12-03
Kirstin:	1926-11-27
Leeann:	1926-11-26
Billye:	1926-11-23
Wareesha:	1926-11-22
Ariyani:	1926-11-18
Luanne:	1926-11-15
Inez:	1926-11-14
Gerome:	1926-11-11
Kaysha:	1926-11-06
Lakendra:	1926-11-05
Alisha:	1926-10-28
Eryk:	1926-10-27
Dara:	1926-10-19
Ashley:	1926-10-14
Cherice:	1926-10-14
Keran:	1926-10-01
Jamile:	1926-09-25
Nakeia:	1926-09-18
Rowe:	1926-09-08
Jacarri:	1926-09-07
Aditya:	1926-08-28
Lucille:	1926-08-28
Chera:	1926-08-24
Labrisha:	1926-08-17
Louretta:	1926-08-09
Jeannee:	1926-08-07
Masan:	1926-08-03
Debralee:	1926-08-02
Carmie:	1926-07-26
Kerin:	1926-07-25
Utah:	1926-07-21
Chukwuemeka:	1926-07-17
Nikkole:	1926-07-14
Deontay:	1926-07-14
Jasiel:	1926-07-13
Erneshia:	1926-07-02
Audine:	1926-06-22
Rowen:	1926-06-20
Obie:	1926-06-17
Alzora:	1926-06-14
Loreli:	1926-06-09
Raghad:	1926-06-06
Damari:	1926-06-03
Richetta:	1926-06-01
Aidyn:	1926-05-23
Nechama:	1926-05-22
Cesario:	1926-05-18
Wilhemenia:	1926-05-17
Leonette:	1926-05-09
Olie:	1926-05-08
Kainen:	1926-05-08
Ernesto:	1926-04-22
Lorence:	1926-04-20
Skyler:	1926-04-12
Kelley:	1926-04-10
Matt:	1926-04-03
Rhiley:	1926-04-01
Sakia:	1926-03-20
Amaris:	1926-03-16
Kiandrea:	1926-03-14
Chaka:	1926-03-11
Mathilda:	1926-03-09
Kwadwo:	1926-03-08
Eulalio:	1926-03-04
Jerimiah:	1926-02-26
Giuliana:	1926-02-23
Brookelynn:	1926-02-20
Lissandro:	1926-02-19
Tomicka:	1926-02-11
Roselynn:	1926-02-04
Elinora:	1926-02-02
Waldo:	1926-02-02
Neill:	1926-01-24
Ellis:	1926-01-22
Elodie:	1926-01-20
Dejanee:	1926-01-16
Myra:	1926-01-16
Keeba:	1926-01-13
Brodie:	1925-12-27
Kandy:	1925-12-23
Jazmin:	1925-12-22
Talton:	1925-12-19
Kymm:	1925-12-17
Shia:	1925-12-17
Wayne:	1925-12-16
Veo:	1925-12-08
Kensleigh:	1925-12-06
Primitivo:	1925-12-05
Gracelyn:	1925-12-05
Surie:	1925-11-28
Adline:	1925-11-27
Zy:	1925-11-24
April:	1925-11-22
Darrion:	1925-11-21
Malvin:	1925-11-19
Lakynn:	1925-11-08
Jonnie:	1925-11-07
Demia:	1925-10-24
Rachelle:	1925-10-14
Molleigh:	1925-10-08
Andrew:	1925-09-22
Khalid:	1925-09-15
Airon:	1925-09-15
Diane:	1925-09-13
Cherry:	1925-09-13
Lonald:	1925-09-12
Kenley:	1925-09-09
Malakhiy:	1925-09-08
Constantino:	1925-09-06
Adyen:	1925-09-05
Maro:	1925-08-28
Kenya:	1925-08-25
Apryl:	1925-08-24
Alexxander:	1925-08-23
Cypris:	1925-08-22
Mele:	1925-08-22
Inda:	1925-08-17
Demaris:	1925-08-16
Tierrah:	1925-08-15
Christel:	1925-08-13
Julio:	1925-08-13
Cassius:	1925-08-08
Sesar:	1925-08-08
Neev:	1925-08-08
Kuulei:	1925-08-07
Atul:	1925-08-05
Salvadore:	1925-07-20
Glennis:	1925-07-17
Lexx:	1925-07-17
Dori:	1925-07-17
Emanual:	1925-07-16
Jestina:	1925-07-14
Adolphus:	1925-07-09
Eyup:	1925-07-06
Katye:	1925-07-05
Andranik:	1925-07-01
Caitlan:	1925-06-25
Francis:	1925-06-23
Vaughn:	1925-06-12
Cheryle:	1925-05-25
Vinnie:	1925-05-25
Valentina:	1925-05-24
Judythe:	1925-05-18
Primo:	1925-05-18
Claudio:	1925-05-18
Elizabeth:	1925-05-14
Rolla:	1925-05-11
Pavel:	1925-05-11
Loren:	1925-05-11
Mayling:	1925-05-08
Nicholas:	1925-05-07
Aaisha:	1925-05-06
Kinsley:	1925-04-25
Tawnya:	1925-04-25
Ahmer:	1925-04-22
Georgene:	1925-04-22
Don:	1925-04-14
Ester:	1925-04-14
Kiernan:	1925-04-13
Lindzie:	1925-04-09
Frank:	1925-03-25
Lylianna:	1925-03-23
Woodson:	1925-03-21
Chani:	1925-03-21
Tayven:	1925-03-20
Trica:	1925-03-13
Ferne:	1925-03-05
Marcayla:	1925-03-02
Leora:	1925-02-26
Kaylee:	1925-02-25
Larua:	1925-02-16
Surie:	1925-02-08
Juanice:	1925-01-27
Sheraldine:	1925-01-22
Hammad:	1925-01-19
Luisa:	1925-01-16
Kelci:	1925-01-14
Tangie:	1925-01-02
Solveigh:	1925-01-01
Otoniel:	1924-12-25
Delois:	1924-12-20
Leoma:	1924-12-14
Daymian:	1924-12-14
Dyane:	1924-12-12
Kirstyn:	1924-12-09
Khalfani:	1924-12-07
Soriyah:	1924-12-05
Bhavesh:	1924-12-03
Jaxton:	1924-11-28
Aoki:	1924-11-23
Lyle:	1924-11-23
Aricka:	1924-11-21
Brad:	1924-11-13
Deano:	1924-11-12
Fredrica:	1924-11-12
Eunice:	1924-11-09
Robbie:	1924-11-03
Lashauna:	1924-11-01
Graciela:	1924-10-26
Zelphia:	1924-10-23
Cristobal:	1924-10-23
Keyani:	1924-10-22
Dorothee:	1924-10-20
Felicia:	1924-10-18
Mirna:	1924-10-15
Shahmeer:	1924-10-09
Winsor:	1924-10-07
Kemarrion:	1924-10-04
Kaleigha:	1924-09-28
Angellyn:	1924-09-22
Hayley:	1924-09-21
Sueann:	1924-09-13
Dayle:	1924-09-11
Marguarite:	1924-09-10
Sunil:	1924-09-06
Javier:	1924-08-28
Janelle:	1924-08-23
Kalianna:	1924-08-14
Hope:	1924-08-11
Ceola:	1924-08-09
Ginelle:	1924-08-03
Francesco:	1924-07-26
Jessee:	1924-07-25
Tierrah:	1924-07-25
Clyde:	1924-07-23
Edger:	1924-07-20
Julieanne:	1924-06-27
Alesana:	1924-06-26
Raynold:	1924-06-01
Shiela:	1924-05-19
Rosaly:	1924-05-18
Yaroslav:	1924-05-17
Lazer:	1924-05-15
Refugio:	1924-05-13
Fleeta:	1924-05-09
Ashtian:	1924-05-06
Leann:	1924-05-06
Raji:	1924-04-26
Ociel:	1924-04-25
Elvis:	1924-04-24
Ervin:	1924-04-21
Zayin:	1924-04-20
Isileli:	1924-04-19
Franchesca:	1924-04-14
Antino:	1924-04-12
Velma:	1924-04-09
Arman:	1924-04-03
Anastasiya:	1924-04-02
Fuller:	1924-03-27
Jamian:	1924-03-21
Calub:	1924-03-21
Brein:	1924-03-17
Jetson:	1924-03-11
Mesa:	1924-03-10
Wayne:	1924-03-08
Afina:	1924-03-07
Dimitra:	1924-03-04
Milam:	1924-02-26
Theressa:	1924-02-21
Dwan:	1924-02-14
Lucien:	1924-01-28
Rex:	1924-01-28
Timmie:	1924-01-26
Valeri:	1924-01-21
Kiyara:	1924-01-11
Aishleen:	1924-01-05
Dasean:	1924-01-05
Rhett:	1924-01-01
Milady:	1923-12-22
Miniya:	1923-12-16
Libby:	1923-12-15
Marga:	1923-12-12
Finis:	1923-12-08
Kaisan:	1923-12-07
Anonda:	1923-12-06
Jakoda:	1923-11-28
Val:	1923-11-20
Carleisha:	1923-11-20
Ranita:	1923-11-18
Leontyne:	1923-11-11
Karlyn:	1923-11-08
Linzie:	1923-11-07
Adrain:	1923-11-04
Othelia:	1923-11-03
Faye:	1923-10-24
Aldric:	1923-10-14
Sia:	1923-10-14
Kotaro:	1923-10-07
Kynsley:	1923-10-05
Keilah:	1923-10-04
Gorge:	1923-09-25
Lester:	1923-09-21
Ashlan:	1923-09-21
Catheryn:	1923-09-13
Samia:	1923-09-12
Beckum:	1923-09-09
Jean:	1923-09-08
Gurtha:	1923-09-01
Sy:	1923-08-27
Shakhzoda:	1923-08-25
Susie:	1923-08-18
Vashti:	1923-08-15
Alyxandra:	1923-08-07
Trude:	1923-08-05
Kavitha:	1923-07-27
Brandan:	1923-07-24
Koko:	1923-07-21
Clara:	1923-07-12
Andrez:	1923-07-09
Norval:	1923-07-02
Cord:	1923-07-02
Ewan:	1923-06-23
Niall:	1923-06-21
Joshue:	1923-06-19
Nicko:	1923-06-17
Piya:	1923-06-15
Danni:	1923-06-12
Kechia:	1923-06-06
Evy:	1923-06-05
Tykera:	1923-06-04
Rutvik:	1923-06-03
Rhetta:	1923-06-02
Lennie:	1923-05-28
Barren:	1923-05-26
Manfred:	1923-05-23
Zayed:	1923-05-20
Geneva:	1923-05-18
Lupe:	1923-05-15
Delphene:	1923-05-13
Herschell:	1923-05-12
Alfred:	1923-05-06
Kaneisha:	1923-05-03
Otho:	1923-05-03
Sheilah:	1923-05-02
Kayden:	1923-04-27
Nicki:	1923-04-25
Lella:	1923-04-17
Cydni:	1923-04-06
Hershel:	1923-04-04
Alfred:	1923-03-28
Denna:	1923-03-27
Lissete:	1923-03-26
Opaline:	1923-03-26
Zohra:	1923-03-20
Zian:	1923-03-13
Ledarion:	1923-03-12
Joey:	1923-03-06
Sloane:	1923-03-04
Sionna:	1923-02-28
Kc:	1923-02-22
Enzio:	1923-02-16
Azura:	1923-02-14
Art:	1923-02-14
Florencia:	1923-01-20
Armond:	1923-01-17
Magnus:	1923-01-14
Joedy:	1923-01-14
Damori:	1923-01-12
Arrie:	1923-01-09
Lani:	1923-01-03
Blaise:	1923-01-02
Delia:	1923-01-02
Mikaylah:	1923-01-02
Mervin:	1922-12-27
Gavriel:	1922-12-24
Tannia:	1922-12-23
Juliann:	1922-12-17
Rilyn:	1922-12-14
Vintrell:	1922-12-07
Gerardo:	1922-12-04
Luis:	1922-12-01
Hayde:	1922-11-27
Angelynn:	1922-11-26
De:	1922-11-22
Lysle:	1922-11-16
Alfonza:	1922-11-14
Truett:	1922-11-13
Aleshia:	1922-11-13
Montaya:	1922-11-08
Aracelie:	1922-11-06
Kaytlin:	1922-11-05
Zelpha:	1922-11-04
Caedence:	1922-11-01
Verl:	1922-10-26
Inis:	1922-10-25
Dewy:	1922-10-23
Dell:	1922-10-22
Cortney:	1922-10-19
Lafaye:	1922-10-17
Doak:	1922-10-16
Arcola:	1922-10-15
Otha:	1922-10-15
Camaria:	1922-10-08
Michel:	1922-10-06
Gilverto:	1922-09-23
Yordy:	1922-09-21
Xochil:	1922-09-21
Aliesha:	1922-09-20
Arlen:	1922-09-19
Jessica:	1922-09-18
Arnisha:	1922-09-17
Waynetta:	1922-09-06
Veeksha:	1922-09-05
Sanchez:	1922-09-05
Erdem:	1922-08-28
Selby:	1922-08-17
Selma:	1922-08-16
Maci:	1922-07-27
Frederick:	1922-07-22
Tashima:	1922-07-19
Geraldene:	1922-07-17
Shana:	1922-07-17
Leshonda:	1922-07-16
Isaiahs:	1922-07-15
Aiko:	1922-07-12
Annemarie:	1922-07-10
Sacha:	1922-07-10
Quinton:	1922-07-02
Claudine:	1922-06-28
Kimmie:	1922-06-28
Rush:	1922-06-24
Adan:	1922-06-21
Jamei:	1922-06-16
Benjamim:	1922-06-14
Alyah:	1922-06-14
Kiela:	1922-06-13
Alara:	1922-06-12
Kayleeanne:	1922-06-07
Lamya:	1922-06-06
Billye:	1922-06-05
Princeton:	1922-05-27
Chico:	1922-05-18
Charee:	1922-05-17
Johnnie:	1922-05-15
Uzziel:	1922-05-12
Caleb:	1922-05-10
Chalina:	1922-04-25
Kare:	1922-04-23
Marcellous:	1922-04-23
Ryliee:	1922-04-23
Coleson:	1922-04-22
Blanton:	1922-04-20
Brando:	1922-04-15
Dmarcus:	1922-04-13
Leara:	1922-04-12
Demitrus:	1922-04-10
Lousia:	1922-04-08
Tylah:	1922-04-08
Vallerie:	1922-04-08
Jaysa:	1922-03-28
Tim:	1922-03-25
Aliannah:	1922-03-21
Ronna:	1922-03-18
Amberly:	1922-03-17
Emiline:	1922-03-06
Samariya:	1922-03-04
Evanie:	1922-03-02
Hershel:	1922-03-01
Quierra:	1922-02-27
Ellis:	1922-02-25
Sohana:	1922-02-24
Jerrie:	1922-02-20
Maylee:	1922-02-19
Fountain:	1922-02-18
Gerri:	1922-02-07
Victoriano:	1922-02-05
Taiga:	1922-01-06
Shanya:	1922-01-03
Zekiel:	1922-01-02
Colette:	1921-12-28
Connell:	1921-12-23
Katari:	1921-12-21
Maryem:	1921-12-21
Shaquana:	1921-12-21
Ezmariah:	1921-12-20
Chrystal:	1921-12-19
Annamae:	1921-12-16
Mihail:	1921-12-15
Waylon:	1921-12-15
Forrest:	1921-12-15
Trystan:	1921-12-13
Gamaliel:	1921-12-12
Natania:	1921-12-06
August:	1921-12-01
Darrionna:	1921-12-01
Amarea:	1921-11-28
Marciano:	1921-11-26
Meredith:	1921-11-14
Ronny:	1921-11-14
Rosea:	1921-11-08
Kendis:	1921-11-07
Laiken:	1921-11-06
Inaya:	1921-11-04
Rylee:	1921-10-23
Marye:	1921-10-15
Tykeem:	1921-10-08
Vic:	1921-10-05
Dwanna:	1921-10-03
Jasir:	1921-10-02
Teia:	1921-09-28
Jadelynn:	1921-09-13
Lauri:	1921-09-13
Ben:	1921-09-10
Quaid:	1921-09-09
Draden:	1921-09-08
Calloway:	1921-09-07
Arvil:	1921-09-02
Rayshaun:	1921-08-27
Ridhima:	1921-08-24
Traven:	1921-08-19
Shafter:	1921-08-17
Kailene:	1921-08-15
Dayahna:	1921-08-13
Djibril:	1921-08-07
Abraham:	1921-08-07
Jasleen:	1921-08-03
Lorelai:	1921-08-01
Lesley:	1921-07-26
Burl:	1921-07-26
Trinley:	1921-07-25
Kelley:	1921-07-14
Deandra:	1921-07-13
Michaeline:	1921-07-13
Kryston:	1921-07-10
Billie:	1921-07-09
Sema:	1921-07-01
Mirta:	1921-06-27
Avram:	1921-06-25
Jolana:	1921-06-20
Harlin:	1921-06-16
Donnise:	1921-06-14
Rueben:	1921-06-14
Nikeya:	1921-06-13
San:	1921-05-28
Floss:	1921-05-25
Jeremiah:	1921-05-19
Larri:	1921-05-16
Andre:	1921-05-03
Fabyan:	1921-05-01
Mariena:	1921-04-28
Hogan:	1921-04-27
Brodrick:	1921-04-26
Emmamarie:	1921-04-24
Benyamin:	1921-04-18
Veva:	1921-04-13
Mailee:	1921-04-12
Carrington:	1921-04-04
Claritza:	1921-04-02
Sira:	1921-03-27
Octavia:	1921-03-24
Maura:	1921-03-21
Dillard:	1921-03-08
Vickie:	1921-03-07
Jenise:	1921-03-03
Chrisopher:	1921-03-03
Kalvin:	1921-02-24
Nineveh:	1921-02-22
Idania:	1921-02-22
Michaelryan:	1921-02-09
Teari:	1921-02-07
Hardeep:	1921-02-07
Marit:	1921-01-27
Ming:	1921-01-26
Ma:	1921-01-22
Shuntia:	1921-01-22
Basma:	1921-01-10
Brentley:	1921-01-05
Takeru:	1921-01-02
Matt:	1920-12-25
Kathia:	1920-12-23
Easton:	1920-12-23
Chelsee:	1920-12-22
Blondell:	1920-12-15
Rakim:	1920-12-14
Laylana:	1920-12-13
Carina:	1920-12-11
Ardis:	1920-12-04
Anisha:	1920-12-04
Sael:	1920-12-02
Shirl:	1920-11-27
Misty:	1920-11-24
Lucilla:	1920-11-13
Jernell:	1920-11-09
Jimmie:	1920-11-07
Rogelio:	1920-11-01
Nils:	1920-11-01
Shaquandra:	1920-10-25
Darnice:	1920-10-24
Damian:	1920-10-22
Tenaya:	1920-10-21
Joandy:	1920-10-17
Raven:	1920-10-16
Rayfield:	1920-10-09
Americo:	1920-10-09
Firdaws:	1920-10-08
Eugen:	1920-10-06
Janina:	1920-09-22
Veronica:	1920-09-22
Breigh:	1920-09-21
Amadou:	1920-09-13
Lashaya:	1920-09-12
Kingsley:	1920-09-02
Nguyen:	1920-08-20
Delphine:	1920-08-15
Amaury:	1920-08-13
Emunah:	1920-08-12
Tasya:	1920-08-12
Mariaeduarda:	1920-08-08
Aslee:	1920-08-02
Dennie:	1920-07-28
Aujanae:	1920-07-27
Travis:	1920-07-25
Sanaa:	1920-07-25
Malka:	1920-07-23
Yeraldin:	1920-07-23
Jayven:	1920-07-22
Serina:	1920-07-20
Clement:	1920-07-19
Alyson:	1920-07-17
Ervin:	1920-07-15
Batool:	1920-07-10
Xan:	1920-07-09
Akeema:	1920-07-03
Beth:	1920-07-01
Mesa:	1920-06-28
Nataniel:	1920-06-24
Auther:	1920-06-23
Opal:	1920-06-19
Arshdeep:	1920-06-14
Isabella:	1920-06-11
Eliska:	1920-06-06
Cy:	1920-06-03
Charvi:	1920-06-03
Matha:	1920-05-28
Rajan:	1920-05-25
Delmar:	1920-05-22
Hennesy:	1920-05-19
Jo:	1920-05-08
Louella:	1920-05-05
Maidie:	1920-05-03
Clayten:	1920-04-22
Mikal:	1920-04-15
Jamelle:	1920-04-13
Nyeesha:	1920-04-09
Jb:	1920-04-05
Dewitt:	1920-04-02
Kemp:	1920-03-27
Alp:	1920-03-27
Locryn:	1920-03-20
Patrina:	1920-03-16
Mikhayla:	1920-03-15
Millicent:	1920-03-15
Elisee:	1920-03-06
Ludie:	1920-03-05
Emerald:	1920-03-04
Lazer:	1920-02-25
Shalen:	1920-02-25
Angellea:	1920-02-13
Leotis:	1920-02-13
Elea:	1920-02-11
Jeanne:	1920-02-09
Linh:	1920-02-06
Delon:	1920-02-03
Cayla:	1920-01-26
Dreya:	1920-01-23
Belton:	1920-01-18
Julyan:	1920-01-10
Christien:	1920-01-07
Jammy:	1920-01-05
Navarre:	1920-01-04
Masen:	1920-01-02
