Durwood:	1956-03-04
Goldie:	1956-03-01
Ernesto:	1956-01-05
Lakrisha:	1955-12-26
Margherita:	1955-12-14
Maebelle:	1955-08-28
Sheridan:	1955-08-25
Katharina:	1955-08-13
Ismay:	1955-05-05
Sammi:	1955-02-18
Jamyra:	1955-02-01
Keno:	1955-01-16
Levia:	1955-01-11
Ethelda:	1954-10-25
Kawena:	1954-10-16
Arihana:	1954-09-27
Italo:	1954-09-06
Joycelyn:	1954-05-19
Gayle:	1954-05-16
Tamari:	1954-03-24
Earnie:	1954-03-09
Arnella:	1954-02-28
Roanna:	1954-02-18
Archibald:	1954-01-08
Judy:	1953-08-09
Eloina:	1953-05-14
Kalanie:	1953-03-27
Niveah:	1953-02-03
Jazmarie:	1953-01-26
Batoul:	1952-08-28
Cheyan:	1952-07-24
Kristine:	1952-06-01
Tyree:	1952-05-28
Demitria:	1952-04-24
Danah:	1952-01-23
Shelby:	1951-09-02
Talyn:	1951-09-01
Thersa:	1951-07-10
Honey:	1951-06-26
Garang:	1951-06-15
Thomas:	1951-02-24
Khalidah:	1951-02-21
Haigen:	1950-12-05
Nerissa:	1950-07-21
Monique:	1950-07-19
Tavar:	1950-07-14
Celine:	1950-07-01
Sarie:	1950-02-22
Nissa:	1950-01-22
Clem:	1949-11-21
Tristram:	1949-10-09
Darcie:	1949-09-28
Jayton:	1949-09-23
Shalimar:	1949-09-01
Carolyn:	1949-07-25
Ellsworth:	1949-07-09
Leland:	1949-05-02
Fatmah:	1949-02-18
Rilynn:	1949-02-13
Carter:	1949-01-25
Dencil:	1948-12-18
Cambrey:	1948-10-25
Ardell:	1948-10-06
Okey:	1948-09-23
Tiffaney:	1948-09-20
Nadia:	1948-08-19
Zyani:	1948-08-09
Maris:	1948-07-16
Wes:	1948-03-28
Andreus:	1948-03-21
Durell:	1947-11-08
Shaylan:	1947-10-23
Arla:	1947-10-16
Lakeeta:	1947-08-24
Oluwademilade:	1947-08-14
Tysheem:	1947-08-12
Vonnie:	1947-07-01
Luisalberto:	1947-06-23
Keymani:	1947-06-15
Jewelianna:	1947-02-17
Naimah:	1946-09-14
Baylor:	1946-08-22
Dontrel:	1946-08-07
Jeninne:	1946-08-02
Rapheal:	1946-07-15
Leonel:	1946-06-17
Larae:	1946-03-19
Angella:	1946-02-21
Mori:	1946-02-02
Markevious:	1946-02-01
Luis:	1946-01-18
Napolean:	1945-12-18
Glenn:	1945-11-07
Leocadia:	1945-10-20
Thurmon:	1945-09-01
Delphine:	1945-08-22
Ellen:	1945-08-10
Kempton:	1945-03-15
Pasqualina:	1945-02-11
Carlis:	1945-01-16
Jullissa:	1944-12-01
Jeannine:	1944-09-26
Marius:	1944-08-01
Chrisoula:	1944-07-20
Gethsemane:	1944-06-16
Calvin:	1944-05-18
Gaylene:	1944-04-20
Maika:	1944-04-12
Neyzer:	1944-03-16
Wendella:	1944-03-15
Loreen:	1944-03-06
Gaytha:	1944-02-25
Lateka:	1944-01-21
Cordai:	1944-01-21
Jolane:	1943-12-15
Theresa:	1943-11-17
Tina:	1943-09-18
Takisha:	1943-08-25
Yarielys:	1943-05-24
Elivia:	1943-05-12
Becci:	1943-02-21
Jahson:	1943-02-14
Ione:	1943-02-03
Ora:	1942-12-26
Jhanee:	1942-12-13
Giordan:	1942-10-05
Naseem:	1942-05-22
Bre:	1941-12-02
Kamil:	1941-10-19
Isaiah:	1941-08-08
Brennen:	1941-07-20
Lailaa:	1941-07-05
Hala:	1941-05-19
Crysten:	1941-05-09
Daren:	1941-05-07
Talasia:	1941-04-28
Valen:	1941-04-14
Clay:	1941-04-02
Alice:	1941-02-02
Cambre:	1941-01-25
Katharyn:	1941-01-22
Georgianne:	1940-12-27
Constance:	1940-12-19
Jazlen:	1940-12-14
Keneth:	1940-11-16
Carlicia:	1940-07-18
Misty:	1940-06-28
Toyka:	1940-04-15
Emerita:	1940-01-10
Adair:	1939-12-27
Carline:	1939-12-14
Tish:	1939-07-14
Lyann:	1939-06-21
Sharat:	1939-06-10
Tamanika:	1939-05-13
Lenore:	1939-05-12
Edmundo:	1939-04-01
Jahlon:	1939-03-09
Rosetta:	1939-03-04
Christia:	1939-03-02
Madden:	1939-02-16
Alon:	1938-08-27
Tristan:	1938-05-17
Eyob:	1938-04-05
Jeffrey:	1937-12-14
Blanca:	1937-11-08
Daylen:	1937-09-25
Rhett:	1937-08-14
Grayce:	1937-08-12
Remy:	1937-08-06
Sherel:	1937-07-05
Trenda:	1937-05-25
Garnett:	1937-05-24
Henri:	1937-05-13
Johnny:	1937-04-27
Char:	1937-04-25
Natalia:	1937-03-26
Minka:	1937-02-15
Denise:	1937-02-10
Alonza:	1937-01-19
Persephanie:	1936-12-15
Cristain:	1936-12-14
Jevante:	1936-10-17
Gay:	1936-08-28
Casey:	1936-08-24
Ahmaud:	1936-07-19
Arielis:	1936-06-23
Alvaro:	1936-04-25
Tera:	1936-04-09
Yahya:	1936-02-06
Lenamarie:	1936-02-01
Attilio:	1936-01-07
Mallery:	1935-11-12
Brandan:	1935-10-13
Amaria:	1935-10-04
Areli:	1935-06-04
Ita:	1935-05-11
Iren:	1935-02-28
Natalya:	1935-02-24
Marquist:	1935-01-15
Anirudh:	1935-01-09
Ula:	1934-12-20
Windel:	1934-10-02
Demetrias:	1934-08-09
Queenie:	1934-08-07
Jonel:	1934-07-01
Maleak:	1934-06-09
Classie:	1934-05-13
Vee:	1934-05-11
Levie:	1934-04-28
Lavetta:	1934-04-23
Henrietta:	1934-04-05
Richard:	1934-03-01
Milena:	1934-01-17
Rosemae:	1934-01-15
Bridger:	1934-01-05
Trenice:	1933-12-08
Karren:	1933-11-28
Selene:	1933-11-10
Cleora:	1933-10-21
Dino:	1933-09-27
Danny:	1933-09-09
Shauntee:	1933-07-19
Natica:	1933-05-13
Trixie:	1933-03-28
Bennett:	1933-03-01
Arryon:	1933-01-09
Yides:	1932-12-21
Windy:	1932-12-15
Kristine:	1932-09-25
Kayloni:	1932-09-04
Bishop:	1932-07-09
Fiorela:	1932-07-06
Aya:	1932-06-19
Keelin:	1932-06-05
Lindsey:	1932-04-24
Kassy:	1932-03-12
Saryn:	1932-01-25
Louiza:	1932-01-04
Kortnie:	1931-10-10
Kevaughn:	1931-09-12
Dyann:	1931-08-07
Lyle:	1931-07-26
Bridon:	1931-06-13
Querida:	1931-06-13
Takarra:	1931-06-01
Jeral:	1931-04-24
Bobbi:	1931-03-05
Jermey:	1931-01-18
Milton:	1930-11-27
Deryl:	1930-09-16
Margareta:	1930-06-21
Jomarie:	1930-06-04
Oluwatobi:	1930-05-25
Alynn:	1930-04-02
Rilee:	1930-03-16
Jamilyn:	1930-03-12
Melchor:	1930-03-04
Ray:	1930-01-18
Phil:	1929-12-27
Kristien:	1929-12-19
Lena:	1929-11-06
Delia:	1929-10-10
Alban:	1929-08-24
Yuridia:	1929-07-24
Kim:	1929-05-22
Chirstian:	1929-03-24
Elmarie:	1929-01-17
Dartagnan:	1928-12-24
Toniette:	1928-12-22
Lalita:	1928-12-18
Aramis:	1928-09-16
Ardis:	1928-03-28
Justyce:	1928-01-05
Paitlyn:	1927-12-26
Linde:	1927-12-19
Audrianna:	1927-08-25
Laith:	1927-08-18
Calli:	1927-08-09
Hermione:	1927-07-03
Thermon:	1927-06-16
Loren:	1927-04-26
Tell:	1927-04-14
Paden:	1927-03-28
Abelino:	1927-03-27
Norbert:	1927-02-25
Francisca:	1927-02-07
Jilliann:	1927-01-14
Trevon:	1926-10-24
Romell:	1926-10-08
Teea:	1926-10-04
Vanessa:	1926-05-05
Arleigh:	1926-04-13
Clarissa:	1926-04-10
Shantel:	1926-04-07
Kanai:	1926-04-05
Katy:	1926-03-12
Ethel:	1926-01-24
Aleksandra:	1925-12-26
Joy:	1925-10-17
Charlene:	1925-09-23
Jasean:	1925-08-28
Milfred:	1925-06-12
Debbie:	1925-04-17
Reuben:	1925-04-10
Ollie:	1925-04-09
Mae:	1925-01-10
Courtney:	1925-01-05
Farin:	1924-12-27
Chavis:	1924-12-06
Shelby:	1924-11-12
Woods:	1924-10-24
Luvenia:	1924-09-11
Debraann:	1924-08-12
Zakar:	1924-06-20
Cleophas:	1924-06-02
Suanne:	1924-05-05
Sheryn:	1924-04-01
Chandra:	1924-03-04
Alphonsine:	1924-02-14
Olie:	1924-02-10
Shaakira:	1923-11-14
Skipper:	1923-08-06
Ysidro:	1923-06-14
Emmaleah:	1923-06-01
Hartwell:	1923-05-08
Darald:	1923-03-13
Kennah:	1923-02-07
Marigene:	1923-01-20
Aneka:	1922-12-09
Exie:	1922-09-20
Khaaliq:	1922-08-17
Alvia:	1922-07-11
Juliun:	1922-06-12
Payton:	1922-06-06
Classie:	1922-03-06
Juleigh:	1922-02-28
Amina:	1922-02-06
Russel:	1922-01-13
Montez:	1921-07-26
Juanita:	1921-07-22
Teodoro:	1921-05-03
Bryon:	1921-03-25
Millie:	1921-03-09
Kemaya:	1921-02-18
Deanie:	1920-12-22
Ames:	1920-12-10
Charleston:	1920-11-16
Jaslyn:	1920-10-17
Noreen:	1920-10-04
Isavella:	1920-07-19
Katilyn:	1920-06-14
Arnette:	1920-04-19
Kaliana:	1920-04-07
Shawnetta:	1920-01-10
