Rian:	1955-06-17
Vella:	1952-04-25
Karsen:	1951-10-19
Lamon:	1949-04-28
Geo:	1947-04-03
Krystian:	1945-04-21
Paulette:	1942-04-18
Jimenna:	1940-03-16
Charmayne:	1939-06-08
Sarika:	1939-01-15
Teletha:	1937-11-21
Kerrick:	1937-10-23
Patrik:	1936-11-26
Nonie:	1936-06-19
Maydean:	1935-08-11
Veronica:	1932-11-25
Feliciana:	1929-05-18
Jacen:	1929-01-05
Kiran:	1928-09-08
Katheryne:	1925-02-15
Ajiah:	1925-01-27
Dailyn:	1924-11-05
Saverio:	1924-03-21
Eyal:	1924-02-23
Chadrick:	1924-01-10
Xylia:	1923-04-26
Oakes:	1922-01-28
Jamiya:	1920-09-14
Adrien:	1920-07-12
Gus:	1920-01-21
