Taya:	2021-11-11
Latishia:	2021-10-05
Renna:	2021-09-11
Louella:	2021-09-02
Kerby:	2021-08-21
Kharter:	2021-08-08
Adeline:	2021-06-11
Adella:	2021-06-02
Shirlie:	2021-05-09
Brian:	2021-03-25
Kenton:	2021-02-11
Lula:	2021-01-20
Carmie:	2020-10-20
Elza:	2020-09-21
Jodilyn:	2020-06-21
Irvine:	2020-03-04
Dmarcus:	2020-01-25
Georgette:	2019-12-14
Vladislav:	2019-12-07
Demarqus:	2019-11-14
Veleta:	2019-11-12
Labrea:	2019-09-14
Rima:	2019-08-11
Dudley:	2019-06-11
Latecia:	2019-05-18
Nolin:	2019-04-28
Margot:	2019-04-25
Amaury:	2019-03-24
Eller:	2019-03-22
Moishe:	2019-02-07
Cristoval:	2018-12-21
Averell:	2018-12-18
Benjaman:	2018-11-06
Hal:	2018-11-03
Jene:	2018-10-14
Anferny:	2018-07-16
Heli:	2018-03-13
Thu:	2018-03-01
Tandy:	2018-02-22
Indica:	2018-01-12
Jeanna:	2017-11-21
Chemise:	2017-11-09
Rory:	2017-11-09
Shelly:	2017-05-15
Skyelar:	2017-05-09
Skyelar:	2017-04-24
Cage:	2017-02-08
Yusef:	2017-01-14
Sharlotte:	2017-01-07
Rada:	2017-01-01
Yensi:	2016-12-24
Zane:	2016-12-08
Maxi:	2016-11-25
Lezlie:	2016-10-21
Simon:	2016-10-19
Connie:	2016-09-03
Becket:	2016-07-19
Siris:	2016-04-17
Lacrisha:	2016-02-07
Emile:	2015-11-25
Melvyn:	2015-11-18
Babygirl:	2015-08-05
Agnella:	2015-05-19
Dionicio:	2015-05-13
Tran:	2015-05-07
Haruki:	2015-04-22
Charming:	2015-04-15
Ebbie:	2015-03-01
Sophea:	2015-02-28
Zeplyn:	2015-02-16
Memoree:	2015-02-11
Kelton:	2014-05-20
Elmyra:	2014-05-15
Kenli:	2014-05-05
Kalab:	2014-04-12
Levora:	2014-03-22
Olan:	2014-03-11
Tearria:	2013-11-28
Kaylanii:	2013-11-26
Regena:	2013-11-03
Florenzo:	2013-10-26
Thena:	2013-09-16
Arlo:	2013-08-27
Devlyn:	2013-08-10
Nieves:	2013-07-20
Candance:	2013-02-20
Kaliana:	2012-12-16
Melvine:	2012-11-28
Ryana:	2012-11-19
Levontae:	2012-09-07
Dorthy:	2012-06-14
Little:	2012-05-15
Irina:	2012-02-21
Alonie:	2012-02-19
Julia:	2011-12-27
Watt:	2011-12-17
Jovani:	2011-12-11
Doretta:	2011-10-21
Merilyn:	2011-10-15
Makena:	2011-07-04
Emmanuela:	2011-03-24
Denise:	2011-02-20
Ladoris:	2011-01-03
Angelee:	2010-11-25
Niels:	2010-11-10
Blossom:	2010-11-06
Yaminah:	2010-10-25
Derricka:	2010-09-28
Gene:	2010-08-10
Broadus:	2010-07-22
Hailley:	2010-07-01
Rhilee:	2010-05-25
Latrisha:	2010-04-10
Arlean:	2010-02-06
Astrid:	2009-12-24
Serenity:	2009-11-01
Eileene:	2009-10-25
Lameka:	2009-10-24
Kenichi:	2009-10-22
Lamarr:	2009-10-12
Elia:	2009-10-06
Shella:	2009-09-20
Prima:	2009-02-08
Usman:	2009-01-21
Mossie:	2008-12-08
Geovany:	2008-11-16
Kenner:	2008-10-20
Morgen:	2008-06-09
Eliud:	2008-05-24
Felicia:	2008-05-02
Okey:	2008-03-17
Filiberto:	2008-01-07
Nellie:	2007-10-20
Smiley:	2007-05-26
Adrienne:	2007-05-09
Peighton:	2007-03-22
Edge:	2006-11-07
Adasha:	2006-11-07
Amaree:	2006-10-13
Shanira:	2006-08-20
Myelle:	2006-07-11
Marcelline:	2006-06-22
Gwendolynn:	2006-05-23
Kimber:	2006-04-13
Tynesha:	2005-11-16
Cora:	2005-09-16
Shilo:	2005-09-15
Stephany:	2005-09-14
Zayda:	2005-09-09
Nairobi:	2005-04-16
Najmo:	2004-12-23
Magdalen:	2004-11-18
Lemonte:	2004-11-11
Dmani:	2004-10-12
Johathan:	2004-09-14
Eleanor:	2004-09-12
Gayna:	2004-09-07
Treazure:	2004-08-27
Daquane:	2004-08-14
Roniyah:	2004-08-05
Gibson:	2004-07-26
Rozell:	2004-06-23
Heston:	2004-02-02
Lucy:	2004-01-14
Webster:	2003-11-06
Ciera:	2003-09-05
Kay:	2003-08-20
Rodrigo:	2003-07-15
Renelda:	2003-04-19
Mahleek:	2003-04-14
Atiba:	2002-12-21
Sriansh:	2002-11-10
Deby:	2002-10-22
Antrell:	2002-10-07
Bertille:	2002-09-11
Devita:	2002-09-04
Lorina:	2002-08-20
Watson:	2002-07-01
Missy:	2002-06-13
Gitel:	2002-03-18
Abla:	2002-03-05
Willaim:	2002-03-02
Emmitt:	2002-01-19
Jaley:	2002-01-12
Corene:	2001-12-28
Damaris:	2001-10-10
Errol:	2001-09-05
Katrena:	2001-07-02
Kane:	2001-06-25
Micheala:	2001-06-12
Buckley:	2001-05-11
Dayle:	2001-04-08
Elyja:	2001-02-17
Megan:	2001-02-10
Deerica:	2000-12-22
Nyheim:	2000-12-10
Tristin:	2000-10-13
Rene:	2000-06-03
Antonina:	2000-05-04
Kal:	2000-04-27
Ailiyah:	2000-03-24
Statler:	2000-03-01
Richmond:	2000-02-14
Marianne:	2000-02-04
Dreyden:	2000-01-04
Catheryn:	1999-12-11
Nyaisa:	1999-11-12
Frimmy:	1999-11-01
Majerle:	1999-10-18
Dirk:	1999-09-15
Briton:	1999-09-04
Kyarra:	1999-07-15
Langley:	1999-01-23
Lebarron:	1998-12-26
Sambhav:	1998-12-22
Simmie:	1998-12-09
Jedriel:	1998-11-21
Liel:	1998-11-06
Catarino:	1998-10-25
Vinnia:	1998-08-19
Jashiyah:	1998-08-13
Maylene:	1998-08-10
Deandria:	1998-07-01
Xandria:	1998-05-01
Cabot:	1998-03-19
Runell:	1998-01-16
Jonavan:	1998-01-12
Zachery:	1997-12-16
Ashle:	1997-10-15
Demonta:	1997-04-27
Daryl:	1997-04-19
Aaleah:	1997-04-11
Salvadore:	1997-04-08
Menucha:	1997-02-10
Julianne:	1996-09-20
Danari:	1996-09-15
Lakitha:	1996-08-19
Briston:	1996-08-05
Reber:	1996-07-26
Elio:	1996-06-28
Kipling:	1996-06-11
Lori:	1996-04-23
Christeena:	1996-03-26
Davy:	1996-03-26
Hayzlee:	1996-03-12
Devin:	1996-02-17
Kye:	1996-02-02
Keonna:	1995-11-12
Christof:	1995-11-02
Ardella:	1995-10-21
Dilynn:	1995-10-01
Wash:	1995-09-10
Annamary:	1995-05-23
Kato:	1995-01-10
Santresa:	1994-12-20
Tazia:	1994-12-17
Miah:	1994-10-20
Waverly:	1994-10-13
Amaris:	1994-10-08
Ameer:	1994-09-07
Laneshia:	1994-09-07
Junie:	1994-09-06
Carolanne:	1994-07-25
Velinda:	1994-06-09
Oracio:	1994-05-01
Willian:	1994-04-27
Harris:	1994-03-01
Clyde:	1994-02-14
Kenta:	1994-02-13
Cleona:	1994-01-28
Mame:	1993-12-20
Romon:	1993-12-15
Koriana:	1993-11-23
Armanda:	1993-11-10
Marilynne:	1993-11-01
Lisseth:	1993-10-10
Deysi:	1993-07-13
Draeden:	1993-05-19
Jenise:	1993-05-02
Lanell:	1993-03-17
Tatiyana:	1993-03-12
Henryk:	1992-11-24
Dillan:	1992-10-18
Ovell:	1992-10-16
Baela:	1992-09-17
Amiel:	1992-09-16
Asija:	1992-09-15
Bliss:	1992-09-09
Sheneka:	1992-07-04
Booker:	1992-06-08
Lanie:	1992-03-01
Yudith:	1992-02-23
Roswell:	1992-02-16
Kylian:	1992-02-09
Deny:	1992-01-18
Herman:	1991-12-25
Mishelle:	1991-10-27
Albin:	1991-10-01
Nelida:	1991-07-24
Calixto:	1991-06-18
Simmie:	1991-04-13
Michelle:	1991-02-19
Arnaz:	1991-02-09
Jaella:	1991-02-05
Dennie:	1990-10-26
Toniette:	1990-10-24
Barry:	1990-09-20
Tawonna:	1990-06-21
Azrah:	1990-05-12
Lennette:	1990-04-25
Verena:	1990-04-12
Corky:	1990-04-01
Latron:	1990-03-22
Delayne:	1990-01-18
Vonda:	1990-01-06
Keithen:	1989-12-22
Valli:	1989-10-16
Ben:	1989-06-15
Genesis:	1989-05-05
Shruthi:	1989-03-22
Sharin:	1989-02-11
Keyuana:	1989-01-26
Dominique:	1988-11-02
Librada:	1988-02-15
Virda:	1987-12-19
Aysha:	1987-11-25
Makai:	1987-09-16
Teralyn:	1987-08-03
Angelee:	1987-07-02
Opal:	1987-05-17
Jodie:	1987-02-23
Dyane:	1986-12-27
Alayza:	1986-12-21
Sahana:	1986-12-19
Tecia:	1986-11-16
Garnet:	1986-10-10
Raekwon:	1986-09-21
Snow:	1986-08-24
Hollyann:	1986-08-02
Aluna:	1986-06-08
Anayshia:	1986-05-02
Kieryn:	1986-05-01
Trey:	1986-04-17
Suzanne:	1986-03-13
Leshia:	1986-03-07
Nasair:	1986-02-07
Maximo:	1986-01-18
Shontia:	1985-12-26
Lexxis:	1985-10-17
Mohmad:	1985-10-16
Lanessa:	1985-10-13
Lateasha:	1985-09-15
Ori:	1985-08-13
Charolette:	1985-07-01
Santo:	1985-01-11
Jesica:	1984-10-22
Eliga:	1984-09-11
Cindy:	1984-08-18
Avian:	1984-07-14
Baili:	1984-06-24
Khairi:	1984-06-14
Lacey:	1984-06-11
Konrad:	1984-05-14
Estrella:	1984-01-25
Declan:	1983-12-18
Angelinna:	1983-12-01
Mylen:	1983-11-21
Lowell:	1983-09-01
Lottie:	1983-08-27
Caryl:	1983-08-10
Lakira:	1983-07-08
Haivyn:	1983-07-05
Willye:	1983-06-03
Gwenn:	1983-05-20
Woodie:	1983-02-07
Brockton:	1982-11-18
Cheney:	1982-11-08
Arieyana:	1982-11-07
Maiyah:	1982-08-16
Brittish:	1982-08-04
Christalyn:	1982-07-28
Shaden:	1982-05-13
Lason:	1982-04-19
Javid:	1981-11-18
Davelle:	1981-11-09
Thedora:	1981-09-18
Sanita:	1981-07-09
Rema:	1981-07-07
Kisha:	1981-05-10
Erma:	1981-04-12
Jamesina:	1981-02-05
Kyson:	1980-12-27
Zoejane:	1980-10-27
Kajal:	1980-10-18
Demetric:	1980-05-28
Lino:	1980-05-15
Mariel:	1980-05-06
Justine:	1980-01-09
Stephone:	1979-12-13
Rudi:	1979-11-05
Nahom:	1979-10-16
Venecia:	1979-10-09
Jermey:	1979-10-08
Makynleigh:	1979-10-04
Kiyomi:	1979-09-03
Ilona:	1979-08-05
Makiya:	1979-08-01
Marrisa:	1979-06-02
Josphine:	1979-05-08
Kriti:	1979-04-14
Azariyah:	1979-04-09
Dontevion:	1979-04-02
Oceanna:	1979-01-05
Scout:	1978-10-09
Valincia:	1978-09-05
Bradley:	1978-09-05
Desani:	1978-08-18
Isela:	1978-08-16
Sannon:	1978-08-12
Evia:	1978-07-20
Nunzio:	1978-07-08
Gifford:	1978-07-04
Bethanie:	1978-05-12
Trina:	1978-02-02
Adriane:	1978-01-13
Yousif:	1977-12-28
Brissa:	1977-10-20
Abcde:	1977-09-12
Italy:	1977-08-28
Hulan:	1977-08-15
Jaylon:	1977-06-25
Esteven:	1977-06-13
Ruthie:	1977-04-13
Zyin:	1977-01-25
Jeanett:	1976-10-14
Vanna:	1976-10-08
Rowland:	1976-10-05
Trinitie:	1976-09-24
Kadeidre:	1976-09-19
Zebastian:	1976-07-23
Kentae:	1976-02-09
Donyae:	1976-01-15
Jezel:	1975-12-16
Taylee:	1975-12-14
Feather:	1975-10-03
Jequarius:	1975-09-18
Jemaine:	1975-08-04
Mong:	1975-06-26
Dewon:	1975-04-28
Ginger:	1975-03-08
Cortina:	1975-02-04
Truly:	1975-02-02
Kaziyah:	1975-01-19
Arienne:	1974-12-16
Branda:	1974-11-19
Dineen:	1974-08-21
Kaylum:	1974-08-20
Anthony:	1974-06-28
Dupree:	1974-06-09
Eron:	1974-05-25
Davarius:	1974-04-18
Almira:	1974-03-18
Suzzanne:	1974-02-26
Jennifer:	1974-01-17
Norah:	1973-11-20
Kento:	1973-10-23
Maximiano:	1973-10-11
Yaretcy:	1973-09-23
Latara:	1973-09-19
Ceri:	1973-09-12
Rieanna:	1973-09-06
Haelee:	1973-07-25
Dymphna:	1973-07-21
Chantal:	1973-06-08
Deklyn:	1973-04-02
Kramer:	1973-03-18
Trinity:	1973-03-14
Murphy:	1973-02-17
Lake:	1973-01-11
Lurlean:	1972-12-26
Jaiyanna:	1972-12-20
Ettore:	1972-11-01
Amaya:	1972-10-16
Tekesha:	1972-09-09
Lawernce:	1972-08-23
Lagena:	1972-07-26
Candelaria:	1972-07-12
Naomi:	1972-07-11
Tarrah:	1972-06-25
Abi:	1972-06-23
Bassel:	1972-05-23
Kamdin:	1972-04-26
Whitley:	1972-04-06
Ladon:	1972-04-03
Keidra:	1972-03-08
Rosette:	1972-01-20
Mansi:	1971-12-08
Deane:	1971-12-01
Kamar:	1971-10-15
Daniah:	1971-09-12
Patrisia:	1971-08-21
Hjalmer:	1971-08-16
Percival:	1971-07-20
Rosina:	1971-03-09
Montine:	1971-02-08
Alyanna:	1971-01-17
Savalas:	1970-11-04
Rogelio:	1970-10-19
Romell:	1970-10-10
Buford:	1970-09-28
Areta:	1970-07-21
Edwards:	1970-07-14
Nyota:	1970-07-09
Loyola:	1970-06-14
Kaylee:	1970-06-11
Pavan:	1970-05-05
Travis:	1970-04-21
Tuesday:	1970-04-16
Isaack:	1969-12-03
King:	1969-07-12
Sadeel:	1969-06-14
Maylanie:	1969-06-12
Addison:	1969-06-10
Clarence:	1969-06-10
Madolyn:	1969-04-14
Glenwood:	1969-04-03
Bob:	1968-11-28
Marshall:	1968-11-25
Syra:	1968-11-20
Taunja:	1968-08-14
Josejuan:	1968-05-17
Shavone:	1968-04-03
Anastasia:	1968-03-06
Rajeev:	1967-11-13
Abrham:	1967-10-16
Eden:	1967-08-28
Moses:	1967-08-26
Shanae:	1967-05-05
Christiopher:	1967-02-18
Emaly:	1967-02-06
Sidney:	1967-02-06
Jamey:	1966-12-02
Renda:	1966-11-11
Carrissa:	1966-11-04
Becca:	1966-10-17
Jett:	1966-10-16
Marinna:	1966-09-16
Giani:	1966-08-08
Pamela:	1966-07-18
Corean:	1966-06-12
Tomiko:	1966-05-17
Tansy:	1966-05-03
Graylee:	1966-04-04
Kerma:	1966-03-23
Arlean:	1966-01-25
Valrie:	1966-01-02
Chandrea:	1965-12-18
Heavenleigh:	1965-12-13
Ritchard:	1965-10-20
Edgardo:	1965-09-27
Marcelo:	1965-09-14
Trecie:	1965-08-21
Roree:	1965-07-01
Candie:	1965-05-14
Xania:	1965-04-04
Raleigh:	1965-04-04
Clemmie:	1965-03-10
Markiya:	1965-03-08
Holland:	1965-01-03
Mardee:	1964-07-19
Fynn:	1964-06-10
Saleemah:	1964-04-10
Ashlan:	1964-03-17
Delia:	1964-02-11
Damoni:	1963-12-04
Denika:	1963-08-23
Tateana:	1963-06-20
Delaney:	1963-06-15
Andrews:	1963-06-13
Ruth:	1963-05-14
Lexi:	1963-05-05
Brittania:	1963-04-23
Fanta:	1962-11-13
Archibald:	1962-10-27
Nira:	1962-09-05
Jimmy:	1962-08-26
Aubria:	1962-07-09
Burney:	1962-07-01
Christapher:	1962-05-27
Tate:	1962-05-18
Haidy:	1962-05-07
Weston:	1961-12-19
Denon:	1961-11-10
Cathrine:	1961-08-11
Becky:	1961-07-10
Hartley:	1961-06-05
Kendrick:	1961-03-19
Francine:	1961-02-27
Elward:	1961-01-26
Fernando:	1960-12-17
Renoda:	1960-10-20
Latona:	1960-10-03
Jance:	1960-07-06
James:	1960-07-01
Renee:	1960-06-22
Taneeka:	1960-05-23
Juliocesar:	1960-04-21
Devona:	1960-03-08
Michel:	1960-01-20
Zuri:	1959-09-19
Donnetta:	1959-07-04
Christiane:	1959-04-06
Ettie:	1959-03-20
Pilar:	1959-03-19
Christen:	1959-01-17
Devanshi:	1959-01-06
Glenetta:	1958-12-14
Delayne:	1958-12-13
Vita:	1958-11-16
Luzelena:	1958-09-05
Maleki:	1958-08-25
Victorio:	1958-07-13
Lea:	1958-05-03
Baby:	1958-04-10
Kyli:	1958-03-06
Glade:	1958-02-27
Thurman:	1958-02-25
Jayda:	1958-02-11
Janece:	1957-12-22
Anuoluwapo:	1957-10-07
Shayne:	1957-09-12
Larry:	1957-09-06
Orlondo:	1957-08-06
Temple:	1957-06-27
Edwin:	1957-06-06
Yoali:	1957-05-28
Myers:	1957-05-24
Angila:	1957-01-09
Torien:	1956-12-10
Levell:	1956-11-25
Meredith:	1956-08-24
Rolla:	1956-06-27
Eduar:	1956-06-13
Eliezer:	1956-06-04
Teofila:	1956-01-15
Antoine:	1955-12-02
Yuliana:	1955-11-03
Daequan:	1955-10-09
Earmon:	1955-04-28
Ryelee:	1955-04-27
Camellia:	1955-04-06
Sharlyn:	1955-01-25
Deana:	1955-01-24
Leanne:	1954-12-19
Wasil:	1954-07-22
Oswaldo:	1954-07-15
Arguster:	1954-03-21
Shayla:	1954-02-28
Coby:	1954-02-24
Marilynn:	1953-12-20
Kerwin:	1953-10-06
Ashby:	1953-09-28
Braidyn:	1953-08-25
Faris:	1953-06-18
Ashton:	1953-06-13
Roxy:	1953-06-11
Webster:	1953-04-20
Philippe:	1953-04-12
Larose:	1953-03-04
Zeno:	1953-02-26
Mang:	1953-02-17
Belem:	1953-01-21
Jaycey:	1953-01-11
Justan:	1952-12-05
Tamaira:	1952-08-25
Rodny:	1952-07-02
Joeann:	1952-05-28
Elan:	1952-05-26
Toni:	1952-04-23
Bunny:	1952-04-13
Temaka:	1952-04-06
Delora:	1952-04-01
Alejandro:	1952-02-22
Crosby:	1952-01-04
Carmelita:	1951-12-09
Mayrin:	1951-12-01
Romero:	1951-11-12
Wylie:	1951-07-24
Lorelei:	1951-06-25
Oswell:	1951-04-01
Patricia:	1950-11-08
Tex:	1950-10-08
Lucyann:	1950-09-23
Shabria:	1950-08-06
Janis:	1950-05-13
Antoine:	1950-05-08
Lennon:	1950-05-01
Jonette:	1950-04-25
Jolene:	1950-01-27
Yazir:	1949-11-24
Marliyah:	1949-11-15
Lynnea:	1949-11-14
Corbett:	1949-11-02
Crystal:	1949-07-28
Letticia:	1949-05-12
Lillard:	1949-04-17
Rachelle:	1949-03-10
Sebastian:	1949-03-05
Pocahontas:	1949-03-04
Shunika:	1949-02-18
Romulo:	1949-02-18
Ellie:	1948-12-14
Amon:	1948-12-14
Maisie:	1948-12-14
Berdia:	1948-11-20
Juliagrace:	1948-11-19
Bernece:	1948-11-10
Keefe:	1948-09-03
Sonny:	1948-08-24
Emilynn:	1948-08-03
Dillon:	1948-06-28
Katharina:	1948-02-26
Tevion:	1948-01-22
Audre:	1948-01-22
Dametria:	1948-01-13
Lorenza:	1947-12-19
Odean:	1947-10-18
Chanel:	1947-10-02
Elvis:	1947-07-27
Angelo:	1947-07-24
Zedrick:	1947-04-26
Stanley:	1947-03-20
Evan:	1947-02-24
Pattiann:	1946-10-17
Rosaria:	1946-10-04
Rodney:	1946-10-03
Donold:	1946-09-05
Arica:	1946-07-28
Hanae:	1946-02-18
Penny:	1946-02-16
Analis:	1945-11-20
Zana:	1945-10-09
Tyga:	1945-10-08
Lowry:	1945-09-08
Michael:	1945-07-21
Bertie:	1945-07-16
Effie:	1945-06-08
Shiree:	1945-05-24
Avanell:	1945-02-16
Christy:	1945-02-02
Conrad:	1945-01-22
Timica:	1945-01-22
Teyanna:	1945-01-02
Janene:	1944-09-19
Neena:	1944-06-26
Celines:	1944-06-10
Meryl:	1944-05-04
Lorianne:	1944-04-28
Senai:	1944-04-22
Shayleen:	1944-04-21
Duane:	1944-02-28
Elissa:	1943-11-27
Nixxon:	1943-10-05
Yaritzi:	1943-08-15
Seng:	1943-07-09
Markiesha:	1943-06-13
Kayelynn:	1943-04-28
Amia:	1943-04-11
Analeigha:	1943-03-06
Gayla:	1943-02-12
Tashawn:	1943-01-23
Arvin:	1943-01-23
Eual:	1942-10-21
Hind:	1942-09-22
Doren:	1942-08-14
Garvin:	1942-08-06
Joas:	1942-07-22
Reatha:	1942-03-13
Dejaun:	1942-02-14
Aarron:	1942-02-13
Yosgart:	1941-12-19
Mathilde:	1941-11-02
Latischa:	1941-10-11
Haille:	1941-08-04
Ameia:	1941-07-20
Jayleen:	1941-06-22
Bradford:	1941-06-11
Jim:	1941-05-07
Solomona:	1941-05-04
Pascual:	1941-05-01
Melford:	1941-03-12
Landon:	1941-01-20
Burnard:	1941-01-14
Khaliah:	1940-10-04
Janai:	1940-09-07
Dede:	1940-06-26
Pascal:	1940-06-15
Jashae:	1940-05-25
Rolfe:	1940-05-15
Deaija:	1940-01-28
Jacobi:	1939-12-14
Lotta:	1939-11-27
Debra:	1939-11-22
Dorcas:	1939-09-06
Brandon:	1939-09-01
Vinetta:	1939-05-03
Ky:	1939-03-23
Leahanna:	1939-02-15
Christine:	1939-01-28
Toma:	1938-12-13
Star:	1938-11-19
Tomislav:	1938-10-23
Chyleen:	1938-10-21
Kaelynne:	1938-10-09
Cornel:	1938-09-17
Ladell:	1938-07-28
Reinaldo:	1938-07-12
Alizaye:	1938-07-05
Liana:	1938-05-21
Levia:	1938-05-08
Lisa:	1938-03-18
Arush:	1938-03-17
Storm:	1938-02-14
Jobie:	1937-12-03
Maryellen:	1937-11-06
Michah:	1937-10-27
Elida:	1937-09-26
Jonny:	1937-09-18
Emiley:	1937-09-09
Tasheena:	1937-08-02
Arelis:	1937-07-27
Haydan:	1937-06-25
Luda:	1937-05-24
Elvina:	1937-05-08
Harrell:	1937-05-01
Lekita:	1937-04-26
Alandrea:	1937-04-22
Zohar:	1937-04-19
Anila:	1937-03-04
Keaden:	1937-02-22
Nandini:	1937-01-04
Quenten:	1936-11-06
George:	1936-10-12
Cleda:	1936-09-17
Petar:	1936-09-09
Emeterio:	1936-04-24
Demarko:	1936-02-06
Gerod:	1936-01-20
Lois:	1935-12-22
Allana:	1935-11-18
Matalyn:	1935-10-10
Robie:	1935-09-08
Cornell:	1935-08-14
Latarsha:	1935-07-19
Kassidy:	1935-04-14
Magdiel:	1935-03-19
Jeptha:	1935-03-05
Elinore:	1934-09-19
Makyra:	1934-08-22
Dakotta:	1934-08-03
Azumi:	1934-07-15
Aaiden:	1934-07-08
Yosmar:	1934-06-20
Yee:	1934-06-18
Roselind:	1934-06-15
Theophil:	1934-04-26
Woody:	1934-04-26
Sharlize:	1934-01-03
Verne:	1933-12-01
Neko:	1933-11-02
Audris:	1933-09-01
Krissie:	1933-08-21
Cove:	1933-07-06
Khamiah:	1933-06-23
Kairee:	1933-06-20
Tamara:	1933-06-19
Kitty:	1933-01-03
Faviola:	1932-09-10
Samina:	1932-08-27
Clementina:	1932-08-17
Sallye:	1932-06-27
Austin:	1932-02-21
Ajani:	1932-02-17
Josey:	1932-01-07
Tenya:	1931-11-16
Creed:	1931-09-02
Llewellyn:	1931-08-07
Raynard:	1931-08-05
Meenakshi:	1931-08-05
Robby:	1930-12-07
Elric:	1930-11-26
Vishruth:	1930-10-06
Electra:	1930-09-25
Dorean:	1930-08-26
Kendarrius:	1930-06-09
Eirik:	1930-05-03
Emalena:	1930-02-26
Parke:	1930-01-20
Vanita:	1929-12-18
Renne:	1929-11-11
Ardis:	1929-08-04
Marylynn:	1929-06-07
Dexter:	1929-05-25
Takayla:	1929-04-21
Khadjah:	1929-03-18
Kadesha:	1929-03-02
Chidi:	1929-02-09
Kenon:	1929-02-08
Jeryl:	1928-11-10
Myrtle:	1928-10-03
Shyheim:	1928-09-26
Alma:	1928-09-06
Coltin:	1928-06-22
Cathline:	1928-05-06
Lauro:	1928-05-03
Merilynn:	1928-04-24
Oluwadamilare:	1928-03-23
Jaxie:	1928-03-05
Lela:	1928-01-17
Zamya:	1928-01-13
Starlit:	1928-01-12
Casimer:	1928-01-03
Levinia:	1927-12-10
Reid:	1927-10-21
Tyrica:	1927-09-16
Kalysta:	1927-06-03
Chelbie:	1927-03-28
Jla:	1927-02-01
Keaghan:	1927-01-11
Rosalinda:	1926-12-13
Bianca:	1926-11-18
Eliezer:	1926-09-28
Evangelina:	1926-08-02
Kristopher:	1926-05-15
Berlin:	1926-05-04
Konstantinos:	1926-05-01
Samaira:	1926-04-23
Zaidon:	1926-02-12
Gilma:	1925-10-01
Toinette:	1925-09-18
Meris:	1925-09-17
Aislynn:	1925-09-07
Serafin:	1925-06-24
Tayvion:	1925-06-10
Fed:	1925-05-20
Sumeko:	1925-05-13
Chana:	1925-03-21
Demondre:	1925-03-18
Colby:	1925-02-05
Charee:	1925-01-06
Keyshawna:	1924-12-28
Reubin:	1924-12-23
Huong:	1924-12-20
Emelina:	1924-12-07
Savalas:	1924-12-07
Aeson:	1924-11-03
Damarrius:	1924-10-23
Nichola:	1924-10-22
Odessa:	1924-09-09
Marietta:	1924-08-02
Zarin:	1924-07-25
Cheryl:	1924-06-03
Marcene:	1924-04-14
Cynitha:	1924-01-26
Clelia:	1923-09-08
Lacresia:	1923-08-18
Akim:	1923-06-17
Carry:	1923-03-17
Enedelia:	1923-02-15
Natilie:	1923-01-26
Laretha:	1923-01-15
Tela:	1922-12-19
Estephania:	1922-12-04
Windell:	1922-11-15
Micah:	1922-08-08
Shanell:	1922-07-01
Tylon:	1922-06-17
Ivar:	1922-05-17
Aliany:	1922-05-10
Kalea:	1922-04-28
Sanders:	1922-03-25
Dally:	1922-02-11
Gareth:	1921-12-17
Brenly:	1921-12-14
Filemon:	1921-12-04
Nautia:	1921-11-23
Shawniece:	1921-10-07
Reggie:	1921-09-21
Kennah:	1921-09-13
Micky:	1921-04-23
Latrica:	1921-02-28
Temitope:	1920-10-02
Tyvon:	1920-08-11
Kristine:	1920-07-27
Jairon:	1920-06-07
Glenn:	1920-05-22
Luz:	1920-05-18
Grethel:	1920-03-08
Abed:	1920-01-27
Claressa:	1920-01-18
